Place,Name,Sex,BirthDate,Age,Equipment,Division,BodyweightKg,WeightClassKg,Squat1Kg,Squat2Kg,Squat3Kg,Best3SquatKg,Bench1Kg,Bench2Kg,Bench3Kg,Best3BenchKg,Deadlift1Kg,Deadlift2Kg,Deadlift3Kg,Best3DeadliftKg,TotalKg,Event,Team,Country
NS,Karen McKernan,F,1977-07-08,44,Raw,F-M1,,,,,,,,,,,,,,,,SBD,A.B.S. Powerlifting,
NS,Liona Hanley,F,1980-06-04,41,Raw,F-M1,,,,,,,,,,,,,,,,SBD,,
NS,Lorna Ward,F,1978-05-23,43,Raw,F-M1,,,,,,,,,,,,,,,,SBD,KAOS,
1,Sarah Flynn,F,1973-10-21,48,Raw,F-M1,51.6,52,102.5,-110,110,110,50,52.5,-55,52.5,120,125,-130,125,287.5,SBD,Phenom Gym,
1,Mary Boyle,F,1975-02-26,47,Raw,F-M1,61.6,63,122.5,130,136.5,136.5,55,60,62.5,62.5,140,150,157.5,157.5,356.5,SBD,Strength Militia,
2,Noreen McDermott,F,1980-06-08,41,Raw,F-M1,62.2,63,-117.5,117.5,-122.5,117.5,72.5,77.5,80.5,80.5,140,152.5,157.5,157.5,355.5,SBD,Strength Militia,
3,Kathy Morrissey,F,1975-09-14,46,Raw,F-M1,62.4,63,-82.5,82.5,-90,82.5,47.5,50,52.5,52.5,115,122.5,127.5,127.5,262.5,SBD,A.B.S. Powerlifting,
4,Nikol Habrova,F,1979-01-02,43,Raw,F-M1,61.6,63,-72.5,72.5,75,75,-52.5,52.5,55,55,95,100,102.5,102.5,232.5,SBD,,
1,Niamh Savage,F,1978-07-25,43,Raw,F-M1,68.4,69,170,-172.5,-172.5,170,75,77.5,-80,77.5,195,205,215,215,462.5,SBD,,
2,Joanne Coogan,F,,,Raw,F-M1,67.2,69,130,-140,-140,130,82.5,86,88,88,155,165,175,175,393,SBD,Strength Militia,
3,Rachael Ireson,F,,,Raw,F-M1,67.6,69,95,-100,100,100,55,57.5,-60,57.5,122.5,127.5,132.5,132.5,290,SBD,CBF,
1,Aileen Muldoon,F,1978-02-16,44,Raw,F-M1,74.8,76,132.5,142.5,-151,142.5,77.5,82.5,-85,82.5,145,157.5,167.5,167.5,392.5,SBD,A.B.S. Powerlifting,
2,Marion Kearns,F,1974-09-27,47,Raw,F-M1,74.2,76,120,125,130,130,60,65,67.5,67.5,135,147.5,-155,147.5,345,SBD,A.B.S. Powerlifting,
3,Catherine Evans,F,1976-08-03,45,Raw,F-M1,72.2,76,-105,105,110,110,60,65,67.5,67.5,115,122.5,-127.5,122.5,300,SBD,Conor Byrne Fitness,
1,Lorraine McKenna,F,1973-01-17,49,Raw,F-M1,83.4,84,155,157.5,-165,157.5,60,62.5,65,65,167.5,175,-182.5,175,397.5,SBD,Strength Coach NI,
2,Margaret Carey,F,,,Raw,F-M1,82.8,84,135,142.5,-150,142.5,72.5,78.5,80,80,160,170,-175,170,392.5,SBD,KAOS,
3,Nicole Craig #1,F,1976-12-02,45,Raw,F-M1,83.2,84,110,120,-125,120,62.5,-67.5,-67.5,62.5,160,170,-175,170,352.5,SBD,Phenom Gym,
4,Niina Järvenkari,F,1974-01-07,48,Raw,F-M1,78.2,84,87.5,95,100,100,55,60,62.5,62.5,97.5,107.5,112.5,112.5,275,SBD,A.B.S. Powerlifting,
1,Emma Kiely,F,1974-01-11,48,Raw,F-M1,103.6,84+,125,135,-140,135,70,75,-80,75,170,177.5,-182,177.5,387.5,SBD,Victory Fitness,
2,Jennifer Egan,F,1980-01-30,42,Raw,F-M1,92.8,84+,130,140,-145,140,60,67.5,70,70,150,160,-162.5,160,370,SBD,FITT Conditioning,
3,Geraldine Shannon,F,1974-05-22,47,Raw,F-M1,100.4,84+,80,90,100,100,75,80,85,85,130,140,150,150,335,SBD,,
4,Celina Hughes,F,1974-01-27,48,Raw,F-M1,100.2,84+,-105,110,115,115,52.5,-57.5,-57.5,52.5,125,135,140,140,307.5,SBD,A.B.S. Powerlifting,
1,Marie Hickey,F,1969-11-05,52,Raw,F-M2,61.8,63,100,-107.5,107.5,107.5,55,60,-62.5,60,120,130,140,140,307.5,SBD,Urban Barbell,
2,Marjorie Farrugia,F,1971-06-17,50,Raw,F-M2,62.6,63,75,82.5,90,90,42.5,47.5,50,50,90,97.5,105,105,245,SBD,Urban Barbell,
1,Karen Barry,F,1966-07-29,55,Raw,F-M2,68.2,69,135,142.5,-147.5,142.5,72.5,-80,-80,72.5,140,150,-157.5,150,365,SBD,Phenom Gym,
1,Helen Twomey,F,1967-04-10,55,Raw,F-M2,80.6,84,105,112.5,115,115,72.5,75,78.5,78.5,140,150,160,160,353.5,SBD,Peak Performance Killarney,
1,Tamzen Malone,F,,,Raw,F-M2,95.4,84+,97.5,110,115,115,65,70,75,75,115,125,-140,125,315,SBD,RTB Powerlifting,
1,Tara Conlon,F,1959-04-01,63,Raw,F-M3,56,57,60,65,67.5,67.5,40,45,-47.5,45,100,105,110,110,222.5,SBD,A.B.S. Powerlifting,
1,Caroline Cunniffe,F,1957-12-27,64,Raw,F-M3,60.6,63,82.5,90,95,95,50,51.5,52,52,110,122.5,128,128,275,SBD,A.B.S. Powerlifting,
2,Mairead Collins,F,1956-06-12,65,Raw,F-M3,62,63,90,-95,97.5,97.5,35,37.5,40,40,105,115,-120,115,252.5,SBD,RTB Powerlifting,
1,Mary Fusco,F,1957-07-08,64,Raw,F-M3,74.8,76,100,-107.5,107.5,107.5,50,52.5,55,55,105,112.5,117.5,117.5,280,SBD,Arena Gym,
NS,Isabelle Clarke,F,,,Raw,F-U21,,,,,,,,,,,,,,,,SBD,Odyssey Strength,
NS,Kamila Merenkova,F,,,Raw,F-U21,,,,,,,,,,,,,,,,SBD,A.B.S. Powerlifting,
1,Fina Doyle,F,,,Raw,F-U21,50.8,52,85,95,-100,95,50,-55,-55,50,130,-140,145.5,145.5,290.5,SBD,Phenom Gym,
1,Aine O'Neill,F,,,Raw,F-U21,56.2,57,90,95,97.5,97.5,42.5,45,-47.5,45,110,120,125,125,267.5,SBD,A.B.S. Powerlifting,
1,Macey Hall,F,,,Raw,F-U21,60.4,63,110,115,-122.5,115,65,70,75,75,120,130,140,140,330,SBD,CityGym Limerick,
2,Amy McKeogh,F,,,Raw,F-U21,62.4,63,95,102.5,107.5,107.5,-50,-55,55,55,125,137.5,-145,137.5,300,SBD,A.B.S. Powerlifting,
1,Aisling Roche,F,,,Raw,F-U21,69,69,130,137,140,140,62.5,70,-72.5,70,130,140,-145,140,350,SBD,FITT Conditioning,
2,Ellen Power,F,,,Raw,F-U21,64.2,69,110,118,120,120,50,55,57.5,57.5,130,140,145.5,145.5,323,SBD,Odyssey Strength,
3,Emily Barr,F,,,Raw,F-U21,67,69,95,100,105,105,40,-45,-45,40,110,120,127.5,127.5,272.5,SBD,,Ireland
1,Anaya Leo,F,,,Raw,F-U21,74,76,110,115,117.5,117.5,40,45,47.5,47.5,112.5,122.5,132.5,132.5,297.5,SBD,Urban Barbell,
1,Emily Azzali,F,,,Raw,F-U21,109.2,84+,125,130.5,133,133,55,60,-62.5,60,120,127.5,132.5,132.5,325.5,SBD,KAOS,
1,Meave Lindner,F,,,Raw,F-U23,56.8,57,112.5,120,125,125,57.5,62.5,65,65,117.5,127.5,132.5,132.5,322.5,SBD,APC,
2,Megan Bennett,F,,,Raw,F-U23,56,57,100,105,107.5,107.5,60,65,67.5,67.5,122.5,130,-140,130,305,SBD,FITT Conditioning,
1,Jody Stevens,F,,,Raw,F-U23,62.2,63,145,150,155,155,75,80,83,83,170,180,-186,180,418,SBD,Cummings Coaching,
2,Leah Kearney,F,,,Raw,F-U23,62.4,63,-120,120,132.5,132.5,70,75,80.5,80.5,137.5,147.5,155,155,368,SBD,McGarry Barbell,
3,Megan Rea,F,,,Raw,F-U23,63,63,122.5,130,-135,130,52.5,57.5,-60,57.5,127.5,137.5,145,145,332.5,SBD,A.B.S. Powerlifting,
1,Lota Leinberga,F,,,Raw,F-U23,68.6,69,142.5,151,155.5,155.5,95,100,-103,100,150,160,165,165,420.5,SBD,A.B.S. Powerlifting,
2,Jordan Bright,F,,,Raw,F-U23,67.2,69,150.5,155,158,158,57.5,62.5,67.5,67.5,145,155,165,165,390.5,SBD,Strength Militia,
1,Mia Kovacs,F,,,Raw,F-U23,75.2,76,-135,135,142.5,142.5,62.5,67.5,-72.5,67.5,140,150,162.5,162.5,372.5,SBD,Phenom Gym,
2,Ava Foley,F,,,Raw,F-U23,73.8,76,112.5,120,127.5,127.5,75,-80.5,80.5,80.5,142.5,152.5,-162.5,152.5,360.5,SBD,A.B.S. Powerlifting,
3,Lilian Kuria,F,,,Raw,F-U23,70.2,76,115,120,-125,120,40,45,50,50,140,150,155,155,325,SBD,Odyssey Strength,
4,Caoimhe Massey,F,,,Raw,F-U23,74.8,76,95,105,112.5,112.5,52.5,60,-65,60,127.5,137.5,145,145,317.5,SBD,Odyssey Strength,
5,Naomi Hannon,F,,,Raw,F-U23,72.2,76,105,115,122.5,122.5,40,45,-50,45,125,135,-142.5,135,302.5,SBD,Urban Barbell,
1,Lystus Ebosele,F,,,Raw,F-U23,85.4,84+,180,190,196.5,196.5,107,112,114,114,180,190,200,200,510.5,SBD,A.B.S. Powerlifting,
2,Talor Aiyegbeni,F,,,Raw,F-U23,90.2,84+,150,160,165,165,55,57.5,60,60,180,190,198,198,423,SBD,Odyssey Strength,
NS,Isabelle Clarke,F,,,Raw,F-O,,,,,,,,,,,,,,,,SBD,Odyssey Strength,
NS,Kamila Merenkova,F,,,Raw,F-O,,,,,,,,,,,,,,,,SBD,A.B.S. Powerlifting,
NS,Karen McKernan,F,1977-07-08,44,Raw,F-O,,,,,,,,,,,,,,,,SBD,A.B.S. Powerlifting,
NS,Liona Hanley,F,1980-06-04,41,Raw,F-O,,,,,,,,,,,,,,,,SBD,,
NS,Lorna Ward,F,1978-05-23,43,Raw,F-O,,,,,,,,,,,,,,,,SBD,KAOS,
1,Fina Doyle,F,,,Raw,F-O,50.8,52,85,95,-100,95,50,-55,-55,50,130,-140,145.5,145.5,290.5,SBD,Phenom Gym,
2,Sarah Flynn,F,1973-10-21,48,Raw,F-O,51.6,52,102.5,-110,110,110,50,52.5,-55,52.5,120,125,-130,125,287.5,SBD,Phenom Gym,
1,Meave Lindner,F,,,Raw,F-O,56.8,57,112.5,120,125,125,57.5,62.5,65,65,117.5,127.5,132.5,132.5,322.5,SBD,APC,
2,Megan Bennett,F,,,Raw,F-O,56,57,100,105,107.5,107.5,60,65,67.5,67.5,122.5,130,-140,130,305,SBD,FITT Conditioning,
3,Aine O'Neill,F,,,Raw,F-O,56.2,57,90,95,97.5,97.5,42.5,45,-47.5,45,110,120,125,125,267.5,SBD,A.B.S. Powerlifting,
4,Tara Conlon,F,1959-04-01,63,Raw,F-O,56,57,60,65,67.5,67.5,40,45,-47.5,45,100,105,110,110,222.5,SBD,A.B.S. Powerlifting,
1,Jody Stevens,F,,,Raw,F-O,62.2,63,145,150,155,155,75,80,83,83,170,180,-186,180,418,SBD,Cummings Coaching,
2,Leah Kearney,F,,,Raw,F-O,62.4,63,-120,120,132.5,132.5,70,75,80.5,80.5,137.5,147.5,155,155,368,SBD,McGarry Barbell,
3,Mary Boyle,F,1975-02-26,47,Raw,F-O,61.6,63,122.5,130,136.5,136.5,55,60,62.5,62.5,140,150,157.5,157.5,356.5,SBD,Strength Militia,
4,Noreen McDermott,F,1980-06-08,41,Raw,F-O,62.2,63,-117.5,117.5,-122.5,117.5,72.5,77.5,80.5,80.5,140,152.5,157.5,157.5,355.5,SBD,Strength Militia,
5,Megan Rea,F,,,Raw,F-O,63,63,122.5,130,-135,130,52.5,57.5,-60,57.5,127.5,137.5,145,145,332.5,SBD,A.B.S. Powerlifting,
6,Macey Hall,F,,,Raw,F-O,60.4,63,110,115,-122.5,115,65,70,75,75,120,130,140,140,330,SBD,CityGym Limerick,
7,Marie Hickey,F,1969-11-05,52,Raw,F-O,61.8,63,100,-107.5,107.5,107.5,55,60,-62.5,60,120,130,140,140,307.5,SBD,Urban Barbell,
8,Amy McKeogh,F,,,Raw,F-O,62.4,63,95,102.5,107.5,107.5,-50,-55,55,55,125,137.5,-145,137.5,300,SBD,A.B.S. Powerlifting,
10,Kathy Morrissey,F,1975-09-14,46,Raw,F-O,62.4,63,-82.5,82.5,-90,82.5,47.5,50,52.5,52.5,115,122.5,127.5,127.5,262.5,SBD,A.B.S. Powerlifting,
9,Caroline Cunniffe,F,1957-12-27,64,Raw,F-O,60.6,63,82.5,90,95,95,50,51.5,52,52,110,122.5,128,128,275,SBD,A.B.S. Powerlifting,
11,Mairead Collins,F,1956-06-12,65,Raw,F-O,62,63,90,-95,97.5,97.5,35,37.5,40,40,105,115,-120,115,252.5,SBD,RTB Powerlifting,
12,Marjorie Farrugia,F,1971-06-17,50,Raw,F-O,62.6,63,75,82.5,90,90,42.5,47.5,50,50,90,97.5,105,105,245,SBD,Urban Barbell,
13,Nikol Habrova,F,1979-01-02,43,Raw,F-O,61.6,63,-72.5,72.5,75,75,-52.5,52.5,55,55,95,100,102.5,102.5,232.5,SBD,,
1,Niamh Savage,F,1978-07-25,43,Raw,F-O,68.4,69,170,-172.5,-172.5,170,75,77.5,-80,77.5,195,205,215,215,462.5,SBD,,
2,Lota Leinberga,F,,,Raw,F-O,68.6,69,142.5,151,155.5,155.5,95,100,-103,100,150,160,165,165,420.5,SBD,A.B.S. Powerlifting,
3,Joanne Coogan,F,1982-11-20,39,Raw,F-O,67.2,69,130,-140,-140,130,82.5,86,88,88,155,165,175,175,393,SBD,Strength Militia,
4,Jordan Bright,F,,,Raw,F-O,67.2,69,150.5,155,158,158,57.5,62.5,67.5,67.5,145,155,165,165,390.5,SBD,Strength Militia,
5,Karen Barry,F,1966-07-29,55,Raw,F-O,68.2,69,135,142.5,-147.5,142.5,72.5,-80,-80,72.5,140,150,-157.5,150,365,SBD,Phenom Gym,
6,Aisling Roche,F,,,Raw,F-O,69,69,130,137,140,140,62.5,70,-72.5,70,130,140,-145,140,350,SBD,FITT Conditioning,
7,Ellen Power,F,,,Raw,F-O,64.2,69,110,118,120,120,50,55,57.5,57.5,130,140,145.5,145.5,323,SBD,Odyssey Strength,
8,Rachael Ireson,F,1982-12-31,39,Raw,F-O,67.6,69,95,-100,100,100,55,57.5,-60,57.5,122.5,127.5,132.5,132.5,290,SBD,CBF,
9,Emily Barr,F,,,Raw,F-O,67,69,95,100,105,105,40,-45,-45,40,110,120,127.5,127.5,272.5,SBD,,Ireland
1,Aileen Muldoon,F,1978-02-16,44,Raw,F-O,74.8,76,132.5,142.5,-151,142.5,77.5,82.5,-85,82.5,145,157.5,167.5,167.5,392.5,SBD,A.B.S. Powerlifting,
2,Mia Kovacs,F,,,Raw,F-O,75.2,76,-135,135,142.5,142.5,62.5,67.5,-72.5,67.5,140,150,162.5,162.5,372.5,SBD,Phenom Gym,
3,Ava Foley,F,,,Raw,F-O,73.8,76,112.5,120,127.5,127.5,75,-80.5,80.5,80.5,142.5,152.5,-162.5,152.5,360.5,SBD,A.B.S. Powerlifting,
4,Marion Kearns,F,1974-09-27,47,Raw,F-O,74.2,76,120,125,130,130,60,65,67.5,67.5,135,147.5,-155,147.5,345,SBD,A.B.S. Powerlifting,
5,Lilian Kuria,F,,,Raw,F-O,70.2,76,115,120,-125,120,40,45,50,50,140,150,155,155,325,SBD,Odyssey Strength,
6,Caoimhe Massey,F,,,Raw,F-O,74.8,76,95,105,112.5,112.5,52.5,60,-65,60,127.5,137.5,145,145,317.5,SBD,Odyssey Strength,
7,Naomi Hannon,F,,,Raw,F-O,72.2,76,105,115,122.5,122.5,40,45,-50,45,125,135,-142.5,135,302.5,SBD,Urban Barbell,
8,Catherine Evans,F,1976-08-03,45,Raw,F-O,72.2,76,-105,105,110,110,60,65,67.5,67.5,115,122.5,-127.5,122.5,300,SBD,Conor Byrne Fitness,
9,Anaya Leo,F,,,Raw,F-O,74,76,110,115,117.5,117.5,40,45,47.5,47.5,112.5,122.5,132.5,132.5,297.5,SBD,Urban Barbell,
10,Mary Fusco,F,1957-07-08,64,Raw,F-O,74.8,76,100,-107.5,107.5,107.5,50,52.5,55,55,105,112.5,117.5,117.5,280,SBD,Arena Gym,
1,Lorraine McKenna,F,1973-01-17,49,Raw,F-O,83.4,84,155,157.5,-165,157.5,60,62.5,65,65,167.5,175,-182.5,175,397.5,SBD,Strength Coach NI,
2,Margaret Carey,F,1982-12-19,39,Raw,F-O,82.8,84,135,142.5,-150,142.5,72.5,78.5,80,80,160,170,-175,170,392.5,SBD,KAOS,
3,Helen Twomey,F,1967-04-10,55,Raw,F-O,80.6,84,105,112.5,115,115,72.5,75,78.5,78.5,140,150,160,160,353.5,SBD,Peak Performance Killarney,
4,Nicole Craig #1,F,1976-12-02,45,Raw,F-O,83.2,84,110,120,-125,120,62.5,-67.5,-67.5,62.5,160,170,-175,170,352.5,SBD,Phenom Gym,
5,Niina Järvenkari,F,1974-01-07,48,Raw,F-O,78.2,84,87.5,95,100,100,55,60,62.5,62.5,97.5,107.5,112.5,112.5,275,SBD,A.B.S. Powerlifting,
1,Lystus Ebosele,F,,,Raw,F-O,85.4,84+,180,190,196.5,196.5,107,112,114,114,180,190,200,200,510.5,SBD,A.B.S. Powerlifting,
2,Talor Aiyegbeni,F,,,Raw,F-O,90.2,84+,150,160,165,165,55,57.5,60,60,180,190,198,198,423,SBD,Odyssey Strength,
3,Emma Kiely,F,1974-01-11,48,Raw,F-O,103.6,84+,125,135,-140,135,70,75,-80,75,170,177.5,-182,177.5,387.5,SBD,Victory Fitness,
4,Jennifer Egan,F,1980-01-30,42,Raw,F-O,92.8,84+,130,140,-145,140,60,67.5,70,70,150,160,-162.5,160,370,SBD,FITT Conditioning,
5,Geraldine Shannon,F,1974-05-22,47,Raw,F-O,100.4,84+,80,90,100,100,75,80,85,85,130,140,150,150,335,SBD,,
6,Emily Azzali,F,,,Raw,F-O,109.2,84+,125,130.5,133,133,55,60,-62.5,60,120,127.5,132.5,132.5,325.5,SBD,KAOS,
7,Tamzen Malone,F,1972-09-14,49,Raw,F-O,95.4,84+,97.5,110,115,115,65,70,75,75,115,125,-140,125,315,SBD,RTB Powerlifting,
8,Celina Hughes,F,1974-01-27,48,Raw,F-O,100.2,84+,-105,110,115,115,52.5,-57.5,-57.5,52.5,125,135,140,140,307.5,SBD,A.B.S. Powerlifting,
1,Mark Dowling #1,M,1980-10-06,41,Raw,M-M1,86,93,225,232.5,237.5,237.5,117.5,122.5,125,125,250,262.5,272.5,272.5,635,SBD,,
2,Warren Yelverton,M,1973-11-01,48,Raw,M-M1,91.8,93,187.5,197.5,207.5,207.5,147.5,156,-160,156,232.5,255,267.5,267.5,631,SBD,A.B.S. Powerlifting,
3,Kevin McGrath,M,1982-08-31,39,Raw,M-M1,87.4,93,175,-185,185,185,100,105,110,110,200,210,-215,210,505,SBD,Southside Barbell,
1,Anthony McLeggan,M,1981-08-07,40,Raw,M-M1,101.6,105,220,240,260,260,185,195,202.5,202.5,280,300,320.5,320.5,783,SBD,,
1,Colin Power,M,1982-10-15,39,Raw,M-M1,117.8,120,275,295,307.5,307.5,185,195,200,200,275,295,310,310,817.5,SBD,CityGym Limerick,
1,Bert Lynskey,M,1974-06-09,47,Raw,M-M1,127,120+,170,185,195,195,140,150,-157.5,150,200,217.5,227.5,227.5,572.5,SBD,KAOS,
1,Phillip Stanley,M,1969-04-24,53,Raw,M-M2,90.2,93,-165,165,172.5,172.5,112.5,117.5,122.5,122.5,172.5,182.5,190,190,485,SBD,KAOS,
1,Anthony O'Halloran,M,1965-09-04,56,Raw,M-M2,97.4,105,-195,200,-215,200,127.5,132.5,-135,132.5,220,227.5,230,230,562.5,SBD,,
1,Dave Worrall,M,1972-01-18,50,Raw,M-M2,118.4,120,230,-245.5,245.5,245.5,168,-175.5,175.5,175.5,245,260.5,-270.5,260.5,681.5,SBD,Phenom Gym,
NS,John O'Dwyer,M,1955-05-23,66,Raw,M-M3,,,,,,,,,,,,,,,,SBD,CityGym Limerick,
NS,Dylan O'Brien,M,,,Raw,M-U21,,,,,,,,,,,,,,,,SBD,A.B.S. Powerlifting,
1,Josiah Kenny,M,,,Raw,M-U21,65.4,66,160,170,180,180,95,100,-102.5,100,-180,190,-200,190,470,SBD,,
1,Michael Byrne,M,,,Raw,M-U21,71.6,74,155,165,175,175,87.5,95,100,100,160,170,180,180,455,SBD,A.B.S. Powerlifting,
2,Adam McMahon,M,,,Raw,M-U21,72.2,74,130,140,145,145,82.5,90,95,95,175,187.5,200,200,440,SBD,CityGym Limerick,
3,Jack Constable,M,,17,Raw,M-U21,72,74,120,127.5,137.5,137.5,92.5,97.5,105,105,160,170,180,180,422.5,SBD,CityGym Limerick,
1,Alex Elliott,M,,,Raw,M-U21,82.2,83,217.5,227.5,235,235,150,155,-157.5,155,240,255,-260,255,645,SBD,A.B.S. Powerlifting,
2,Robert Lynch #3,M,,,Raw,M-U21,82.2,83,182.5,-192.5,192.5,192.5,-107.5,112.5,117.5,117.5,227.5,240,-256,240,550,SBD,CityGym Limerick,
3,Senan Teevan,M,,,Raw,M-U21,81,83,170,180,-187.5,180,112.5,120,-125,120,230,245,-260,245,545,SBD,A.B.S. Powerlifting,
4,Shane McGarry,M,,,Raw,M-U21,75.3,83,147.5,157.5,162.5,162.5,105,110,117.5,117.5,200,217.5,220,220,500,SBD,A.B.S. Powerlifting,
1,Dustin De Perio,M,,,Raw,M-U21,92.8,93,210,225,235,235,-135,140,-150,140,240,260,280,280,655,SBD,,
1,Conor Clifford,M,,,Raw,M-U21,96.6,105,-200,205,220,220,117.5,125,132.5,132.5,215,230,247.5,247.5,600,SBD,A.B.S. Powerlifting,
2,Naoise Walsh,M,,,Raw,M-U21,104.4,105,190,205,220,220,-100,110,120,120,230,245,260,260,600,SBD,A.B.S. Powerlifting,
1,Arainn OSullivan Eastell,M,,,Raw,M-U21,127.5,120+,150,160,-167.5,160,110,115,-120,115,190,205,-212.5,205,480,SBD,Urban Barbell,
NS,Andrew Ryan #1,M,,,Raw,M-U23,,,,,,,,,,,,,,,,SBD,Odyssey Strength,
1,Cathal McGlynn,M,,,Raw,M-U23,58.6,59,165,172.5,177.5,177.5,95,100,-102.5,100,-220,227.5,-232.5,227.5,505,SBD,A.B.S. Powerlifting,
1,Nathan McIvor,M,,,Raw,M-U23,65.8,66,140,145,-147.5,145,85,90,-92.5,90,175,185,200,200,435,SBD,Strength Militia,
1,Paul Andrae Dy,M,,,Raw,M-U23,72.8,74,180,192.5,-197.5,192.5,-115,115,117.5,117.5,220,-232.5,-232.5,220,530,SBD,,
2,Eoin Shanahan,M,,,Raw,M-U23,71.2,74,175,185,-192.5,185,120,125,127.5,127.5,185,195,205,205,517.5,SBD,A.B.S. Powerlifting,
3,Lee Murphy,M,,,Raw,M-U23,73.2,74,175,182,190,190,95,102.5,-105,102.5,195,207.5,-215,207.5,500,SBD,FITT Conditioning,
4,Patryk Woleniuk,M,,,Raw,M-U23,73,74,155,165,-170,165,117.5,125,130,130,185,-195,195,195,490,SBD,APC,
1,Tom Lynch,M,,,Raw,M-U23,82.6,83,220,230,-235,230,132.5,140,-142.5,140,242.5,252.5,-260,252.5,622.5,SBD,A.B.S. Powerlifting,
2,Lawrence Hale,M,,,Raw,M-U23,82.4,83,195,205,212.5,212.5,115,-120,120,120,260,275,285,285,617.5,SBD,Strength Militia,
3,Abdullah Al-Sehaim,M,,,Raw,M-U23,82,83,-227.5,227.5,-235,227.5,132.5,140,142.5,142.5,220,232.5,-240,232.5,602.5,SBD,A.B.S. Powerlifting,
4,Jonathan Butler,M,,,Raw,M-U23,81.4,83,205,220,230,230,125,132.5,-135,132.5,200,212.5,-225,212.5,575,SBD,Odyssey Strength,
5,Segun Balogun,M,,,Raw,M-U23,82.4,83,-182.5,-182.5,182.5,182.5,132.5,142.5,150,150,215,232.5,240,240,572.5,SBD,Odyssey Strength,
6,Aaron Hutchinson,M,,,Raw,M-U23,82.2,83,-180,180,-190,180,110,115,-120,115,-250,260,-280,260,555,SBD,Odyssey Strength,
7,Mikey O'Reilly,M,,,Raw,M-U23,77.4,83,147.5,155,157.5,157.5,90,97.5,100,100,185,195,205,205,462.5,SBD,A.B.S. Powerlifting,
8,Matthew Jenkinson,M,,,Raw,M-U23,81.6,83,-150,150,165,165,90,-95,97.5,97.5,170,185,190,190,452.5,SBD,A.B.S. Powerlifting,
1,Ion Calmic,M,,,Raw,M-U23,90.8,93,240,257.5,270.5,270.5,155,165,170,170,270,285,300,300,740.5,SBD,A.B.S. Powerlifting,
2,Luke Kelly #1,M,,,Raw,M-U23,91.4,93,215,225,230,230,125,132.5,135,135,240,265,-275,265,630,SBD,O Flaherty Fitness,
3,Cormac Dagg,M,,,Raw,M-U23,87,93,200,210,217.5,217.5,115,120,122.5,122.5,220,235,245,245,585,SBD,Odyssey Strength,
4,Dylan Sattell,M,,,Raw,M-U23,91.8,93,182.5,192.5,197.5,197.5,92.5,-100,100,100,185,200,210,210,507.5,SBD,A.B.S. Powerlifting,
5,Jamie Merrins Pryce,M,,,Raw,M-U23,92.8,93,145,150,160,160,105,-115,-115,105,210,220,230,230,495,SBD,Trinity Barbell,
6,Kyron O'Donnell,M,,,Raw,M-U23,90.2,93,150,160,-170,160,105,115,-117.5,115,190,205,212.5,212.5,487.5,SBD,Urban Barbell,
7,Sean Amisano,M,,,Raw,M-U23,90.2,93,140,150,-160,150,110,117.5,-125,117.5,200,210,220,220,487.5,SBD,Phenom Gym,
1,Melvin Conteh,M,1999-12-13,,Raw,M-U23,98.2,105,247.5,265,275,275,-195,195,205,205,280,-305,305,305,785,SBD,CityGym Limerick,
2,Dylan Morrissey,M,,,Raw,M-U23,103.4,105,215,225,235,235,125,135,-140,135,250,270,285,285,655,SBD,Odyssey Strength,
3,Gavin Keegan,M,,,Raw,M-U23,103.4,105,195,205,212.5,212.5,115,120,125,125,215,227.5,237.5,237.5,575,SBD,A.B.S. Powerlifting,
4,Rodrigues Mikamibua,M,,,Raw,M-U23,97.2,105,180,192.5,-200,192.5,115,120,-122.5,120,225,240,250,250,562.5,SBD,A.B.S. Powerlifting,
1,Conor Kiernan,M,,,Raw,M-U23,110.2,120,235,245,252.5,252.5,165,175,180,180,260,277.5,300,300,732.5,SBD,A.B.S. Powerlifting,
2,Conor Sullivan #2,M,,,Raw,M-U23,112.8,120,185,197.5,205,205,145,152.5,-160,152.5,210,225,232.5,232.5,590,SBD,A.B.S. Powerlifting,
1,Daniel Docherty,M,,,Raw,M-U23,126,120+,270,290,-300,290,165,172.5,177.5,177.5,250,-270,270,270,737.5,SBD,A.B.S. Powerlifting,
NS,Andrew Ryan #1,M,,,Raw,M-O,,,,,,,,,,,,,,,,SBD,Odyssey Strength,
NS,Dylan O'Brien,M,,,Raw,M-O,,,,,,,,,,,,,,,,SBD,A.B.S. Powerlifting,
NS,John O'Dwyer,M,1955-05-23,66,Raw,M-O,,,,,,,,,,,,,,,,SBD,CityGym Limerick,
1,Cathal McGlynn,M,,,Raw,M-O,58.6,59,165,172.5,177.5,177.5,95,100,-102.5,100,-220,227.5,-232.5,227.5,505,SBD,A.B.S. Powerlifting,
1,Josiah Kenny,M,,,Raw,M-O,65.4,66,160,170,180,180,95,100,-102.5,100,-180,190,-200,190,470,SBD,,
2,Nathan McIvor,M,,,Raw,M-O,65.8,66,140,145,-147.5,145,85,90,-92.5,90,175,185,200,200,435,SBD,Strength Militia,
1,Paul Andrae Dy,M,,,Raw,M-O,72.8,74,180,192.5,-197.5,192.5,-115,115,117.5,117.5,220,-232.5,-232.5,220,530,SBD,,
2,Eoin Shanahan,M,,,Raw,M-O,71.2,74,175,185,-192.5,185,120,125,127.5,127.5,185,195,205,205,517.5,SBD,A.B.S. Powerlifting,
3,Lee Murphy,M,,,Raw,M-O,73.2,74,175,182,190,190,95,102.5,-105,102.5,195,207.5,-215,207.5,500,SBD,FITT Conditioning,
4,Patryk Woleniuk,M,,,Raw,M-O,73,74,155,165,-170,165,117.5,125,130,130,185,-195,195,195,490,SBD,APC,
5,Michael Byrne,M,,,Raw,M-O,71.6,74,155,165,175,175,87.5,95,100,100,160,170,180,180,455,SBD,A.B.S. Powerlifting,
6,Adam McMahon,M,,,Raw,M-O,72.2,74,130,140,145,145,82.5,90,95,95,175,187.5,200,200,440,SBD,CityGym Limerick,
7,Jack Constable,M,,17,Raw,M-O,72,74,120,127.5,137.5,137.5,92.5,97.5,105,105,160,170,180,180,422.5,SBD,CityGym Limerick,
1,Alex Elliott,M,,,Raw,M-O,82.2,83,217.5,227.5,235,235,150,155,-157.5,155,240,255,-260,255,645,SBD,A.B.S. Powerlifting,
2,Tom Lynch,M,,,Raw,M-O,82.6,83,220,230,-235,230,132.5,140,-142.5,140,242.5,252.5,-260,252.5,622.5,SBD,A.B.S. Powerlifting,
3,Lawrence Hale,M,,,Raw,M-O,82.4,83,195,205,212.5,212.5,115,-120,120,120,260,275,285,285,617.5,SBD,Strength Militia,
4,Abdullah Al-Sehaim,M,,,Raw,M-O,82,83,-227.5,227.5,-235,227.5,132.5,140,142.5,142.5,220,232.5,-240,232.5,602.5,SBD,A.B.S. Powerlifting,
5,Jonathan Butler,M,,,Raw,M-O,81.4,83,205,220,230,230,125,132.5,-135,132.5,200,212.5,-225,212.5,575,SBD,Odyssey Strength,
6,Segun Balogun,M,,,Raw,M-O,82.4,83,-182.5,-182.5,182.5,182.5,132.5,142.5,150,150,215,232.5,240,240,572.5,SBD,Odyssey Strength,
7,Aaron Hutchinson,M,,,Raw,M-O,82.2,83,-180,180,-190,180,110,115,-120,115,-250,260,-280,260,555,SBD,Odyssey Strength,
8,Robert Lynch #3,M,,,Raw,M-O,82.2,83,182.5,-192.5,192.5,192.5,-107.5,112.5,117.5,117.5,227.5,240,-256,240,550,SBD,CityGym Limerick,
9,Senan Teevan,M,,,Raw,M-O,81,83,170,180,-187.5,180,112.5,120,-125,120,230,245,-260,245,545,SBD,A.B.S. Powerlifting,
10,Shane McGarry,M,,,Raw,M-O,75.3,83,147.5,157.5,162.5,162.5,105,110,117.5,117.5,200,217.5,220,220,500,SBD,A.B.S. Powerlifting,
11,Mikey O'Reilly,M,,,Raw,M-O,77.4,83,147.5,155,157.5,157.5,90,97.5,100,100,185,195,205,205,462.5,SBD,A.B.S. Powerlifting,
12,Matthew Jenkinson,M,,,Raw,M-O,81.6,83,-150,150,165,165,90,-95,97.5,97.5,170,185,190,190,452.5,SBD,A.B.S. Powerlifting,
1,Ion Calmic,M,,,Raw,M-O,90.8,93,240,257.5,270.5,270.5,155,165,170,170,270,285,300,300,740.5,SBD,A.B.S. Powerlifting,
2,Dustin De Perio,M,,,Raw,M-O,92.8,93,210,225,235,235,-135,140,-150,140,240,260,280,280,655,SBD,,
3,Mark Dowling #1,M,1980-10-06,41,Raw,M-O,86,93,225,232.5,237.5,237.5,117.5,122.5,125,125,250,262.5,272.5,272.5,635,SBD,,
4,Warren Yelverton,M,1973-11-01,48,Raw,M-O,91.8,93,187.5,197.5,207.5,207.5,147.5,156,-160,156,232.5,255,267.5,267.5,631,SBD,A.B.S. Powerlifting,
5,Luke Kelly #1,M,,,Raw,M-O,91.4,93,215,225,230,230,125,132.5,135,135,240,265,-275,265,630,SBD,O Flaherty Fitness,
6,Cormac Dagg,M,,,Raw,M-O,87,93,200,210,217.5,217.5,115,120,122.5,122.5,220,235,245,245,585,SBD,Odyssey Strength,
7,Dylan Sattell,M,,,Raw,M-O,91.8,93,182.5,192.5,197.5,197.5,92.5,-100,100,100,185,200,210,210,507.5,SBD,A.B.S. Powerlifting,
8,Kevin McGrath,M,1982-08-31,39,Raw,M-O,87.4,93,175,-185,185,185,100,105,110,110,200,210,-215,210,505,SBD,Southside Barbell,
9,Jamie Merrins Pryce,M,,,Raw,M-O,92.8,93,145,150,160,160,105,-115,-115,105,210,220,230,230,495,SBD,Trinity Barbell,
10,Kyron O'Donnell,M,,,Raw,M-O,90.2,93,150,160,-170,160,105,115,-117.5,115,190,205,212.5,212.5,487.5,SBD,Urban Barbell,
11,Sean Amisano,M,,,Raw,M-O,90.2,93,140,150,-160,150,110,117.5,-125,117.5,200,210,220,220,487.5,SBD,Phenom Gym,
12,Phillip Stanley,M,1969-04-24,53,Raw,M-O,90.2,93,-165,165,172.5,172.5,112.5,117.5,122.5,122.5,172.5,182.5,190,190,485,SBD,KAOS,
1,Melvin Conteh,M,1999-12-13,,Raw,M-O,98.2,105,247.5,265,275,275,-195,195,205,205,280,-305,305,305,785,SBD,CityGym Limerick,
2,Anthony McLeggan,M,1981-08-07,40,Raw,M-O,101.6,105,220,240,260,260,185,195,202.5,202.5,280,300,320.5,320.5,783,SBD,,
3,Dylan Morrissey,M,,,Raw,M-O,103.4,105,215,225,235,235,125,135,-140,135,250,270,285,285,655,SBD,Odyssey Strength,
4,Conor Clifford,M,,,Raw,M-O,96.6,105,-200,205,220,220,117.5,125,132.5,132.5,215,230,247.5,247.5,600,SBD,A.B.S. Powerlifting,
5,Naoise Walsh,M,,,Raw,M-O,104.4,105,190,205,220,220,-100,110,120,120,230,245,260,260,600,SBD,A.B.S. Powerlifting,
6,Gavin Keegan,M,,,Raw,M-O,103.4,105,195,205,212.5,212.5,115,120,125,125,215,227.5,237.5,237.5,575,SBD,A.B.S. Powerlifting,
7,Rodrigues Mikamibua,M,,,Raw,M-O,97.2,105,180,192.5,-200,192.5,115,120,-122.5,120,225,240,250,250,562.5,SBD,A.B.S. Powerlifting,
8,Anthony O'Halloran,M,1965-09-04,56,Raw,M-O,97.4,105,-195,200,-215,200,127.5,132.5,-135,132.5,220,227.5,230,230,562.5,SBD,,
1,Colin Power,M,1982-10-15,39,Raw,M-O,117.8,120,275,295,307.5,307.5,185,195,200,200,275,295,310,310,817.5,SBD,CityGym Limerick,
2,Conor Kiernan,M,,,Raw,M-O,110.2,120,235,245,252.5,252.5,165,175,180,180,260,277.5,300,300,732.5,SBD,A.B.S. Powerlifting,
3,Dave Worrall,M,1972-01-18,50,Raw,M-O,118.4,120,230,-245.5,245.5,245.5,168,-175.5,175.5,175.5,245,260.5,-270.5,260.5,681.5,SBD,Phenom Gym,
4,Conor Sullivan #2,M,,,Raw,M-O,112.8,120,185,197.5,205,205,145,152.5,-160,152.5,210,225,232.5,232.5,590,SBD,A.B.S. Powerlifting,
1,Daniel Docherty,M,,,Raw,M-O,126,120+,270,290,-300,290,165,172.5,177.5,177.5,250,-270,270,270,737.5,SBD,A.B.S. Powerlifting,
2,Bert Lynskey,M,1974-06-09,47,Raw,M-O,127,120+,170,185,195,195,140,150,-157.5,150,200,217.5,227.5,227.5,572.5,SBD,KAOS,
3,Arainn OSullivan Eastell,M,,,Raw,M-O,127.5,120+,150,160,-167.5,160,110,115,-120,115,190,205,-212.5,205,480,SBD,Urban Barbell,
