Name,Sex,BirthYear,Age,Equipment,Division,BodyweightKg,WeightClassKg,Squat1Kg,Squat2Kg,Squat3Kg,Best3SquatKg,Bench1Kg,Bench2Kg,Bench3Kg,Best3BenchKg,Deadlift1Kg,Deadlift2Kg,Deadlift3Kg,Best3DeadliftKg,TotalKg,Event,Place,BirthDate
Vicky Kijumnuayporn,F,1990,31,Raw,FR-O,46.7,47,127.5,132.5,137.5,137.5,87.5,90,-92.5,90,-145,145,156,156,383.5,SBD,1,
Natalie Bartolo,F,,40,Raw,FR-O,51.85,52,100,105,110,110,55,60,-62.5,60,120,127.5,132.5,132.5,302.5,SBD,1,
Tiffany Tran,F,1986,35,Raw,FR-O,50.85,52,-102.5,102.5,-105,102.5,47.5,50,52.5,52.5,110,117.5,122.5,122.5,277.5,SBD,2,
Mikayla Kelly,F,1998,24,Raw,FR-O,56.4,57,120,127.5,-130,127.5,70,72.5,75,75,132.5,142.5,145,145,347.5,SBD,1,
Yvonne Diep,F,1994,27,Raw,FR-O,56.9,57,117.5,125,-132.5,125,62.5,-65,-65,62.5,135,145,-152.5,145,332.5,SBD,2,
Helen Frank,F,1978,43,Raw,FR-O,56.1,57,107.5,-120,120,120,65,-70,-70,65,-110,122.5,130,130,315,SBD,3,
Louise Sutton,F,1965,56,Raw,FR-O,56.3,57,100,-107.5,107.5,107.5,55,-60,60,60,125,137.5,145,145,312.5,SBD,4,
Saraf Khan,F,1997,25,Raw,FR-O,56.4,57,105,115,-122.5,115,-42.5,42.5,45,45,130,140,-147.5,140,300,SBD,5,
Kirsty Lei,F,1997,24,Raw,FR-O,56.5,57,87.5,-92.5,-95,87.5,55,57.5,60,60,140,152.5,-160,152.5,300,SBD,6,
Saranya Naidoo,F,1998,23,Raw,FR-O,56.4,57,87.5,95,100,100,40,-45,,40,125,135,-140,135,275,SBD,7,
Nikki Pham,F,1994,27,Raw,FR-O,56.3,57,-90,-97.5,97.5,97.5,47.5,50,-52.5,50,117.5,-125,-125,117.5,265,SBD,8,
Abigail Warwick,F,1995,26,Raw,FR-O,56.45,57,90,95,-97.5,95,-50,-52.5,-52.5,,117.5,125,130,130,,SBD,DQ,
Alexandra Bonner,F,1998,23,Raw,FR-O,62.2,63,150,-157.5,157.5,157.5,72.5,-80,87.5,87.5,160,175,-185,175,420,SBD,1,
Emily Lai,F,1992,29,Raw,FR-O,60.9,63,122.5,132.5,140,140,-97.5,97.5,-100.5,97.5,157.5,170,-182.5,170,407.5,SBD,2,
Caitlin McCurrie,F,1992,30,Raw,FR-O,61.45,63,115,122.5,127.5,127.5,72.5,75,77.5,77.5,145,152.5,160,160,365,SBD,3,
Nicki Dang,F,1997,25,Raw,FR-O,62.5,63,115,122.5,125,125,65,70,72.5,72.5,152.5,-162.5,162.5,162.5,360,SBD,4,
Vavani Sionillo,F,1996,26,Raw,FR-O,61.2,63,100,107.5,112.5,112.5,65,70,72.5,72.5,130,142.5,150,150,335,SBD,5,
Renee Coleman,F,1993,28,Raw,FR-O,61.8,63,107.5,112.5,117.5,117.5,62.5,-67.5,67.5,67.5,135,145,-150,145,330,SBD,6,
Isabel Lauina,F,1996,26,Raw,FR-O,62.25,63,105,112.5,120,120,-55,57.5,-62.5,57.5,115,127.5,-135,127.5,305,SBD,7,
Mel Anderson,F,1997,25,Raw,FR-O,61.95,63,95,-100,100,100,52.5,55,57.5,57.5,135,140,142.5,142.5,300,SBD,8,
Rebecca Borchardt,F,1996,26,Raw,FR-O,61.55,63,82.5,87.5,92.5,92.5,55,60,-62.5,60,115,125,132.5,132.5,285,SBD,9,
Corinne Napoli,F,1979,42,Raw,FR-O,60.85,63,85,90,95,95,50,-52.5,-52.5,50,105,112.5,-117.5,112.5,257.5,SBD,10,
Marah Bonifacio,F,1996,25,Raw,FR-O,62.45,63,120,127.5,-132.5,127.5,-72.5,-72.5,-72.5,,130,142.5,155,155,,SBD,DQ,
Katelyn Guirguis,F,1995,26,Raw,FR-O,68.15,69,140,150,152.5,152.5,72.5,77.5,80,80,160,172.5,182.5,182.5,415,SBD,1,
Melanie Green,F,,41,Raw,FR-O,68.6,69,125,132.5,-140,132.5,75,80,-82.5,80,165,180,190,190,402.5,SBD,2,
Bianca Thornton,F,1992,29,Raw,FR-O,67.2,69,130,137.5,142.5,142.5,65,-70,-70,65,147.5,157.5,165,165,372.5,SBD,3,
Bernadette Chuan,F,1998,23,Raw,FR-O,67.35,69,100,110,115,115,65,70,-75,70,132.5,-140,140,140,325,SBD,4,
Isabella von Weissenberg,F,1989,32,Raw,FR-O,75.2,76,175,187.5,195,195,95,102.5,-106,102.5,205,217.5,-223,217.5,515,SBD,1,
Kelli Fagan,F,,41,Raw,FR-O,69.9,76,155,170,180,180,85,-90,-90,85,175,190,202.5,202.5,467.5,SBD,2,
Courtney Miller,F,1993,29,Raw,FR-O,75.55,76,145,152.5,-157.5,152.5,70,75,77.5,77.5,150,160,165,165,395,SBD,3,
Joanne Henry #1,F,1987,35,Raw,FR-O,74.5,76,140,147.5,155,155,60,65,-72.5,65,150,160,170,170,390,SBD,4,
Taylah Wright,F,1997,25,Raw,FR-O,75.95,76,-125,-125,125,125,60,65,67.5,67.5,135,-147.5,-147.5,135,327.5,SBD,5,
Jaime Bow,F,1992,29,Raw,FR-O,83.5,84,150,162.5,170,170,72.5,77.5,-80,77.5,167.5,177.5,185.5,185.5,433,SBD,1,
Rebecca Tancevski,F,1995,27,Raw,FR-O,82.5,84,127.5,140,150,150,77.5,82.5,-85,82.5,157.5,170,180,180,412.5,SBD,2,
Amber Chadwick,F,,23,Raw,FR-O,83.5,84,140,142.5,155,155,70,-77.5,-77.5,70,160,172.5,185,185,410,SBD,3,
Isabella Devetak,F,1998,24,Raw,FR-O,82.7,84,152.5,160,-165,160,82.5,87.5,92.5,92.5,155,-160,,155,407.5,SBD,4,
Ebony Puru,F,1995,27,Raw,FR-O,84,84,105,-115,-115,105,60,65,-70,65,145,155,165,165,335,SBD,5,
Carolina Pagadizabal,F,1983,39,Raw,FR-O,111.5,84+,130,137.5,147.5,147.5,70,72.5,,72.5,160,170,177.5,177.5,397.5,SBD,1,
Vala Olaaiga,F,1983,39,Raw,FR-O,133.95,84+,-150,150,-160,150,65,70,75,75,150,162.5,172.5,172.5,397.5,SBD,2,
Kristyn Bennett,F,,29,Raw,FR-O,90.9,84+,142.5,150,157.5,157.5,70,75,-77.5,75,145,155,-165,155,387.5,SBD,3,
Maryanh Nguyen,F,1996,26,Raw,FR-O,101.35,84+,135,142.5,150,150,55,-62.5,-62.5,55,155,165,170,170,375,SBD,4,
Willoe Freeman,F,1976,45,Raw,FR-O,60.75,63,,,,,70,72.5,-75,72.5,,,,,72.5,B,1,
