Division,WeightClassKg,Place,Name,Team,BodyweightKg,Best3SquatKg,Best3BenchKg,Best3DeadliftKg,TotalKg,Equipment,Event,Sex
Boys,51.71,1,Kelly Tindall,Abilene Cooper,50.53,127.01,72.57,151.95,351.53,Single-ply,SBD,M
Boys,51.71,2,Clarence Smith,Abilene Cooper,51.17,124.74,65.77,142.88,333.39,Single-ply,SBD,M
Boys,51.71,3,Jaxon Sullivan,Clyde,44.63,106.59,56.7,117.93,281.23,Single-ply,SBD,M
Boys,55.79,1,Bryce DeVore,Hawley,55.79,147.42,65.77,147.42,360.61,Single-ply,SBD,M
Boys,55.79,2,Jonathan Seabourn,Clyde,55.7,127.01,70.31,122.47,319.78,Single-ply,SBD,M
Boys,55.79,3,Terrence Sims,Abilene Cooper,55.25,124.74,72.57,113.4,310.71,Single-ply,SBD,M
Boys,55.79,4,Corey Qualls,Rotan,52.34,45.36,52.16,102.06,199.58,Single-ply,SBD,M
Boys,59.87,1,Sammy Beall,Abilene Cooper,59.06,163.29,106.59,151.95,421.84,Single-ply,SBD,M
Boys,67.13,2,Colton Pack,Hawley,60.06,167.83,77.11,142.88,387.82,Single-ply,SBD,M
Boys,59.87,3,Dakota Brewster,Clyde,59.06,131.54,81.65,147.42,360.61,Single-ply,SBD,M
Boys,59.87,4,Jeff Reese,Tuscola Jim Ned,58.51,113.4,65.77,122.47,301.64,Single-ply,SBD,M
Boys,59.87,5,Thomas Smart,Clyde,57.88,95.25,54.43,90.72,240.4,Single-ply,SBD,M
Boys,67.13,1,Will Graham,Clyde,66.22,174.63,124.74,192.78,492.15,Single-ply,SBD,M
Boys,67.13,2,Jazper Solis,Abilene,66.41,195.04,108.86,188.24,492.15,Single-ply,SBD,M
Boys,67.13,3,Brett DeVore,Hawley,65.14,174.63,92.99,206.38,474,Single-ply,SBD,M
Boys,67.13,4,Gabrial Diaz,Abilene Cooper,67.13,181.44,104.33,185.97,471.74,Single-ply,SBD,M
Boys,67.13,5,Darrin Rout,Abilene Cooper,66.77,183.7,92.99,174.63,451.32,Single-ply,SBD,M
Boys,67.13,6,Jakeb Miller,Clyde,66.04,147.42,106.59,181.44,435.45,Single-ply,SBD,M
Boys,67.13,7,Alec Apple,Rising Star,67.13,147.42,102.06,181.44,430.91,Single-ply,SBD,M
Boys,67.13,8,Tj Bruns,Abilene Cooper,67.13,163.29,104.33,151.95,419.57,Single-ply,SBD,M
Boys,67.13,9,Kat Leal,Rising Star,66.77,147.42,99.79,170.1,417.3,Single-ply,SBD,M
Boys,67.13,10,Colton Hill,Rising Star,62.87,158.76,77.11,174.63,410.5,Single-ply,SBD,M
Boys,67.13,11,Caleb Miller,Clyde,65.77,151.95,88.45,154.22,394.63,Single-ply,SBD,M
Boys,67.13,12,David Castleberry,Clyde,66.22,136.08,92.99,158.76,387.82,Single-ply,SBD,M
Boys,67.13,13,Aaron Cantu,Abilene Cooper,65.68,131.54,102.06,151.95,385.55,Single-ply,SBD,M
Boys,67.13,14,Chris Hanke,Anson,64.95,147.42,74.84,158.76,381.02,Single-ply,SBD,M
Boys,67.13,15,Ryan Frakes,Tuscola Jim Ned,61.05,142.88,72.57,145.15,360.61,Single-ply,SBD,M
Boys,67.13,16,Jacob Green #5,Abilene,62.96,120.2,79.38,136.08,335.66,Single-ply,SBD,M
Boys,67.13,17,Jacob Howeth,Tuscola Jim Ned,62.69,127.01,72.57,127.01,326.59,Single-ply,SBD,M
Boys,67.13,18,Brad Deel,Clyde,65.86,113.4,79.38,120.2,312.98,Single-ply,SBD,M
Boys,67.13,19,Daniel Sánchez,Rising Star,62.23,102.06,68.04,136.08,306.17,Single-ply,SBD,M
Boys,67.13,DQ,Jonathan Howeth,Tuscola Jim Ned,62.69,136.08,,129.27,,Single-ply,SBD,M
Boys,67.13,DQ,Collin Griffith,Tuscola Jim Ned,64.68,124.74,,151.95,,Single-ply,SBD,M
Boys,74.84,1,Zach Taylor,Merkel,72.39,199.58,117.93,208.65,526.17,Single-ply,SBD,M
Boys,74.84,2,Britton Hale,Abilene Cooper,74.39,181.44,108.86,181.44,471.74,Single-ply,SBD,M
Boys,74.84,3,Dakota Morris,Tuscola Jim Ned,72.67,174.63,117.93,174.63,467.2,Single-ply,SBD,M
Boys,74.84,4,Karrson Strohl,Clyde,71.85,167.83,108.86,181.44,458.13,Single-ply,SBD,M
Boys,74.84,5,Jonathan Davidson,Clyde,72.12,163.29,102.06,154.22,419.57,Single-ply,SBD,M
Boys,74.84,6,Collin Heidenheimer,Anson,73.84,131.54,79.38,131.54,342.46,Single-ply,SBD,M
Boys,74.84,7,Alex Boswell,Merkel,68.31,124.74,58.97,117.93,301.64,Single-ply,SBD,M
Boys,74.84,DQ,Carley Gossett,Anson,73.03,208.65,,,,Single-ply,SBD,M
Boys,82.1,1,Brad Wills,Clyde,81.47,226.8,145.15,219.99,591.94,Single-ply,SBD,M
Boys,82.1,2,Johnny Davis,Clyde,77.2,188.24,129.27,208.65,526.17,Single-ply,SBD,M
Boys,82.1,3,Taylor Bailey,Abilene Cooper,81.28,183.7,124.74,181.44,489.88,Single-ply,SBD,M
Boys,82.1,4,Earl Miller,Hawley,75.66,181.44,104.33,192.78,478.54,Single-ply,SBD,M
Boys,82.1,5,Carl Pendergrast,Rising Star,76.48,185.97,77.11,190.51,453.59,Single-ply,SBD,M
Boys,82.1,6,Cody Buczyna,Merkel,78.11,176.9,90.72,158.76,426.38,Single-ply,SBD,M
Boys,82.1,7,Skyler O'Donald,Clyde,79.29,142.88,122.47,142.88,408.23,Single-ply,SBD,M
Boys,82.1,8,Jeff Early,Clyde,76.75,124.74,90.72,136.08,351.53,Single-ply,SBD,M
Boys,82.1,9,Tyler Cagle,Abilene,77.75,120.2,88.45,113.4,322.05,Single-ply,SBD,M
Boys,82.1,DQ,Zack Smurphat,Tuscola Jim Ned,77.66,140.61,,133.81,,Single-ply,SBD,M
Boys,89.81,1,Quincy Moore,Abilene Cooper,89.72,222.26,149.69,215.46,587.4,Single-ply,SBD,M
Boys,89.81,2,Houston Jones,Tuscola Jim Ned,88.27,199.58,120.2,210.92,530.7,Single-ply,SBD,M
Boys,89.81,3,Austin Martinez,Abilene Cooper,88.45,185.97,106.59,199.58,492.15,Single-ply,SBD,M
Boys,89.81,4,Tanner Fannin,Clyde,84.28,188.24,97.52,199.58,485.34,Single-ply,SBD,M
Boys,89.81,5,Jacob Borrego,Abilene Cooper,86.82,181.44,120.2,183.7,485.34,Single-ply,SBD,M
Boys,89.81,6,Nic Garcia,Abilene Cooper,83.91,174.63,120.2,183.7,478.54,Single-ply,SBD,M
Boys,89.81,7,Brady Odom,Abilene,86.45,181.44,86.18,195.04,462.66,Single-ply,SBD,M
Boys,89.81,8,Steven Lugo,Abilene Cooper,89.81,167.83,104.33,190.51,462.66,Single-ply,SBD,M
Boys,89.81,9,Justin Goble,Clyde,85.73,174.63,102.06,181.44,458.13,Single-ply,SBD,M
Boys,89.81,10,Austin Sellers,Hawley,86.64,136.08,90.72,122.47,349.27,Single-ply,SBD,M
Boys,89.81,DQ,Trey Shelton,Hawley,87.63,151.95,,142.88,,Single-ply,SBD,M
Boys,89.81,DQ,Francisco Hernandez,Abilene,86,,104.33,163.29,,Single-ply,SBD,M
Boys,89.81,DQ,Chantz Anderson,Abilene,89.54,,83.91,122.47,,Single-ply,SBD,M
Boys,109.77,1,Jamar Renfro,Abilene Cooper,99.88,199.58,124.74,199.58,523.9,Single-ply,SBD,M
Boys,99.79,2,Cory Armstrong,Abilene Cooper,97.07,215.46,113.4,174.63,503.49,Single-ply,SBD,M
Boys,99.79,3,Garrison Railsback,Abilene Cooper,96.62,181.44,111.13,199.58,492.15,Single-ply,SBD,M
Boys,99.79,4,Jacob Martinez #12,Abilene,95.35,188.24,102.06,195.04,485.34,Single-ply,SBD,M
Boys,99.79,5,Lorenzo Martinez,Abilene,94.89,201.85,81.65,197.31,480.81,Single-ply,SBD,M
Boys,99.79,6,Chris Horton,Abilene,93.08,172.37,102.06,188.24,462.66,Single-ply,SBD,M
Boys,99.79,7,Zack Martinez,Tuscola Jim Ned,95.98,190.51,111.13,158.76,460.4,Single-ply,SBD,M
Boys,99.79,8,Chad Easley,Clyde,95.71,176.9,120.2,161.03,458.13,Single-ply,SBD,M
Boys,99.79,9,Colton Petijohn,Anson,94.8,158.76,102.06,183.7,444.52,Single-ply,SBD,M
Boys,99.79,10,Kj McFadden,Merkel,99.43,179.17,79.38,170.1,428.64,Single-ply,SBD,M
Boys,99.79,11,Dalton Lopez,Clyde,99.06,158.76,113.4,147.42,419.57,Single-ply,SBD,M
Boys,99.79,12,Max Saxon,Clyde,91.9,145.15,99.79,158.76,403.7,Single-ply,SBD,M
Boys,99.79,13,Devin Woodard,Clyde,99.52,149.69,108.86,145.15,403.7,Single-ply,SBD,M
Boys,99.79,14,Jason Gann,Tuscola Jim Ned,93.53,158.76,92.99,140.61,392.36,Single-ply,SBD,M
Boys,99.79,15,Cody Kluge,Abilene Cooper,96.89,145.15,83.91,154.22,383.29,Single-ply,SBD,M
Boys,99.79,16,Kaleb Messick,Rotan,90.81,133.81,92.99,142.88,369.68,Single-ply,SBD,M
Boys,109.77,1,Josh Robinson,Abilene Cooper,108.23,258.55,145.15,244.94,648.64,Single-ply,SBD,M
Boys,109.77,2,Josh Hamaty,Abilene,109.68,244.94,117.93,226.8,589.67,Single-ply,SBD,M
Boys,109.77,3,Rhett Lawrence,Clyde,102.97,208.65,163.29,208.65,580.6,Single-ply,SBD,M
Boys,109.77,4,Hunter Heidenheimer,Anson,105.69,208.65,147.42,188.24,544.31,Single-ply,SBD,M
Boys,109.77,5,Jose Escamilla,Abilene Cooper,107.14,226.8,115.67,195.04,537.51,Single-ply,SBD,M
Boys,109.77,6,Chris Buckner,Rotan,107.23,172.37,104.33,208.65,485.34,Single-ply,SBD,M
Boys,109.77,DQ,Jay Krebs,Abilene,100.7,,83.91,161.03,,Single-ply,SBD,M
Boys,124.74,1,Luis Hernandez,Abilene,124.38,240.4,170.1,215.46,625.96,Single-ply,SBD,M
Boys,124.74,2,Joe Dillard,Abilene Cooper,110.4,226.8,140.61,229.06,596.47,Single-ply,SBD,M
Boys,124.74,3,Matt Freeman,Abilene Cooper,115.67,226.8,145.15,181.44,553.38,Single-ply,SBD,M
Boys,124.74,4,John Flores,Rotan,113.22,183.7,108.86,192.78,485.34,Single-ply,SBD,M
Boys,124.74,5,Victor Cruz,Abilene,112.49,181.44,117.93,181.44,480.81,Single-ply,SBD,M
Boys,124.74,6,Nelson Goldsmith,Abilene,118.21,147.42,97.52,142.88,387.82,Single-ply,SBD,M
Boys,124.74,DQ,Ben Kittley,Abilene,112.22,226.8,133.81,,,Single-ply,SBD,M
Boys,124.74,DQ,Stephan Molinas,Abilene,116.03,235.87,,185.97,,Single-ply,SBD,M
Boys,124.74,DQ,Matthew Ledbetter,Rotan,124.74,181.44,,188.24,,Single-ply,SBD,M
Boys,124.74,DQ,Jeremy Simons,Hawley,121.11,,102.06,215.46,,Single-ply,SBD,M
Boys,124.74+,1,Cuddy Giddings,Merkel,135.26,249.48,165.56,235.87,650.91,Single-ply,SBD,M
Boys,124.74+,2,Anthony Evans,Abilene Cooper,126.46,254.01,142.88,235.87,632.76,Single-ply,SBD,M
Boys,124.74+,3,Jordan Stevenson,Abilene Cooper,127.19,254.01,108.86,204.12,566.99,Single-ply,SBD,M
Boys,124.74+,4,Chris Hardesty,Hawley,125.01,213.19,120.2,213.19,546.58,Single-ply,SBD,M
Boys,124.74+,5,Hunter Crowder,Tuscola Jim Ned,158.12,181.44,138.35,181.44,501.22,Single-ply,SBD,M
Boys,124.74+,6,Josh Garcia #5,Clyde,125.65,181.44,142.88,165.56,489.88,Single-ply,SBD,M
Boys,124.74+,7,Javier Lara,Abilene,134.54,181.44,127.01,174.63,483.08,Single-ply,SBD,M
Boys,124.74+,8,Huelon Martinez,Abilene,126.82,183.7,102.06,181.44,467.2,Single-ply,SBD,M
Boys,124.74+,9,Randy Moffett,Anson,146.96,170.1,108.86,170.1,449.06,Single-ply,SBD,M
Boys,124.74+,10,Ray Knighton,Clyde,174.63,158.76,92.99,147.42,399.16,Single-ply,SBD,M
