Name,Equipment,Event,Sex,Division,BodyweightKg,WeightClassKg,Squat1Kg,Squat2Kg,Squat3Kg,Squat4Kg,Best3SquatKg,Bench1Kg,Bench2Kg,Bench3Kg,Best3BenchKg,Deadlift1Kg,Deadlift2Kg,Deadlift3Kg,Best3DeadliftKg,TotalKg,Place,Country
Jeremy Hoornstra,Raw,B,M,M-HW,120.06,125,,,,,,275,292.5,-305,292.5,,,,,292.5,1,
Jeremy Herring,Raw,B,M,M-HW,124.6,125,,,,,,215,222.5,-227.5,222.5,,,,,222.5,2,
Swede Burns,Raw,B,M,M-HW,122.97,125,,,,,,217.5,-230,,217.5,,,,,217.5,3,
Barry Gershman,Raw,B,M,M-HW,129.7,140,,,,,,215,227.5,237.5,237.5,,,,,237.5,1,
Dru Patrick,Raw,B,M,M-HW,148.82,140+,,,,,,-227.5,-250,-250,,,,,,,DQ,
Phillip Brewer #1,Raw,B,M,M-MW,73.25,75,,,,,,202.5,210,215,215,,,,,215,1,
Brian Burritt,Raw,B,M,M-MW,81.51,82.5,,,,,,180,-190,-190,180,,,,,180,1,
Ben Williams #2,Raw,B,M,M-MW,87.36,90,,,,,,187.5,-200,-200,187.5,,,,,187.5,1,
Anthony Evans,Raw,B,M,M-MW,95.39,100,,,,,,217.5,227.5,237.5,237.5,,,,,237.5,1,
Eric Downey,Raw,B,M,M-MW,99.47,100,,,,,,212.5,230,-240,230,,,,,230,2,
Joe Hardy,Raw,B,M,M-MW,97.4,100,,,,,,190,200,-212.5,200,,,,,200,3,
April Shumaker,Raw,B,F,F-O,47.3,48,,,,,,77.5,85,,85,,,,,85,1,
Kris Clark,Raw,B,F,F-O,77.2,82.5,,,,,,102.5,115,122.5,122.5,,,,,122.5,1,
April Mathis,Raw,B,F,F-O,120.43,90+,,,,,,185,200,-205,200,,,,,200,1,
Kade Weber,Raw,SBD,M,M-HW,109.3,110,315,-330,-330,,315,220,230,235,235,360,-397.5,-397.5,360,910,1,Canada
Jordan Wong,Raw,SBD,M,M-HW,110,110,305,-320,320,,320,195,210,-217.5,210,272.5,297.5,,297.5,827.5,2,
Pete Rubish,Raw,SBD,M,M-HW,109.8,110,-272.5,272.5,-295,,272.5,165,185,187.5,187.5,330,357.5,-362.5,357.5,817.5,3,USA
Shae Jones,Raw,SBD,M,M-HW,107.8,110,-290,290,-295,,290,-220,,,,-290,,,,,DQ,
Perry Ellis Jr,Raw,SBD,M,M-HW,121.4,125,345,360,-370,,360,205,-212.5,,205,272.5,317.5,-340,317.5,882.5,1,
BJ Whitehead,Raw,SBD,M,M-HW,120.5,125,305,325,-332.5,,325,215,227.5,232.5,232.5,295,320,-327.5,320,877.5,2,
Brian Hopper,Raw,SBD,M,M-HW,117.9,125,282.5,305,317.5,,317.5,185,197.5,205,205,305,327.5,-340,327.5,850,3,
Grant Higa,Raw,SBD,M,M-HW,139.2,140,325,342.5,-350,,342.5,195,202.5,-205,202.5,320,335,342.5,342.5,887.5,1,
Jesse Norris,Raw,SBD,M,M-MW,89.8,90,307.5,-320,320,,320,175,-185,185,185,342.5,355,-365,355,860,1,
Garrett Griffin #2,Raw,SBD,M,M-MW,89.4,90,247.5,260,270,,270,215,222.5,227.5,227.5,277.5,292.5,297.5,297.5,795,2,USA
Chuck Krutulis,Raw,SBD,M,M-MW,89.6,90,265,285,-300,,285,167.5,-175,-175,167.5,292.5,-302.5,-302.5,292.5,745,3,
Da'Mon Mayers,Raw,SBD,M,M-MW,89.2,90,245,260,272.5,,272.5,157.5,165,170,170,297.5,-330,-330,297.5,740,4,
Talon Wright,Raw,SBD,M,M-MW,90,90,222.5,237.5,-247.5,,237.5,175,180,-182.5,180,292.5,305,-312.5,305,722.5,5,
Mike Lane,Raw,SBD,M,M-MW,89.2,90,-217.5,217.5,240,,240,142.5,152.5,-160,152.5,300,320,325,325,717.5,6,
Nick Israel,Raw,SBD,M,M-MW,87.7,90,247.5,-265,,,247.5,,,,,,,,,,DQ,
Dan Green,Raw,SBD,M,M-MW,100,100,320,337.5,350,355.5,350,210,227.5,-230,227.5,352.5,-375,375,375,952.5,1,
Jay Nera,Raw,SBD,M,M-MW,99.4,100,320,327.5,-335,,327.5,200,207.5,-212.5,207.5,330,-340,-340,330,865,2,Canada
Alastair MacNicol,Raw,SBD,M,M-MW,98.2,100,250,262.5,270,,270,160,167.5,-175,167.5,-295,310,320,320,757.5,3,Canada
Jeremy Hamilton,Raw,SBD,M,M-MW,99.8,100,310,330,332.5,,332.5,217.5,227.5,230,230,-332.5,-332.5,-332.5,,,DQ,Canada
Jake Benedix,Raw,SBD,M,M-LW,60,60,152.5,162.5,170,,170,107.5,-112.5,-112.5,107.5,170,182.5,-192.5,182.5,460,1,
Jerry Rodriguez,Raw,SBD,M,M-LW,59.4,60,132.5,145,150,,150,95,100,105,105,165,177.5,187.5,187.5,442.5,2,
Brett Benedix,Raw,SBD,M,M-LW,66.6,67.5,207.5,227.5,233,,233,100,107.5,112.5,112.5,210,227.5,235,235,580.5,1,
Dan Carpenter,Raw,SBD,M,M-LW,65.7,67.5,180,185,187.5,,187.5,115,120,-122.5,120,225,-237.5,,225,532.5,2,
Vashon Perryman,Raw,SBD,M,M-LW,74.5,75,255,270,-277.5,,270,137.5,142.5,-147.5,142.5,300,312.5,-326,312.5,725,1,
Paul Nguyen #1,Raw,SBD,M,M-LW,74.3,75,227.5,237.5,-245,,237.5,147.5,-157.5,157.5,157.5,292.5,310,325.5,325.5,720.5,2,
Reggie Dukes,Raw,SBD,M,M-LW,74.3,75,215,227.5,240,,240,165,170,-175,170,260,272.5,-280,272.5,682.5,3,
Jason Manenkoff,Raw,SBD,M,M-LW,75,75,207.5,220,227.5,,227.5,170,177.5,182.5,182.5,237.5,247.5,-250,247.5,657.5,4,
Tom Roselli,Raw,SBD,M,M-LW,74.6,75,217.5,-232.5,232.5,,232.5,142.5,152.5,-157.5,152.5,227.5,242.5,,242.5,627.5,5,
Jamie Lewis #1,Raw,SBD,M,M-LW,81.8,82.5,275,-287.5,-287.5,,275,152.5,170,175,175,275,292.5,-300,292.5,742.5,1,
John Haack,Raw,SBD,M,M-LW,82.5,82.5,232.5,257.5,267.5,,267.5,-160,167.5,-175,167.5,272.5,300,-320,300,735,2,
Trevor Jaffe,Raw,SBD,M,M-LW,82,82.5,227.5,240,250,,250,142.5,152.5,,152.5,282.5,-305,-305,282.5,685,3,
Max Misch,Raw,SBD,M,M-LW,82.3,82.5,207.5,220,225,,225,137.5,140,142.5,142.5,272.5,277.5,-282.5,277.5,645,4,
Jeff Hart,Raw,SBD,M,M-LW,81.4,82.5,202.5,-220,-220,,202.5,147.5,162.5,,162.5,235,-265,,235,600,5,
Anthony Hobaica,Raw,SBD,M,M-LW,81.1,82.5,-257.5,-257.5,-257.5,,,192.5,-200,-200,192.5,-275,,,,,DQ,
Bob Benedix,Raw,SBD,M,M-LW,81.9,82.5,,,,,,,,,,,,,,,DQ,
Irina Petrovich,Raw,SBD,F,F-HW,65.5,67.5,135,150,155,,155,105,115,-120,115,180,205,,205,475,1,
Rori Megan Alter,Raw,SBD,F,F-HW,67.3,67.5,110,120,127.5,,127.5,72.5,80,82.5,82.5,155,170,177.5,177.5,387.5,2,
Alanna Casey,Raw,SBD,F,F-HW,71.7,75,137.5,160,175,,175,90,107.5,-112.5,107.5,172.5,192.5,205,205,487.5,1,
Sara Cichorek,Raw,SBD,F,F-HW,73.8,75,137.5,145,150,,150,67.5,72.5,75,75,167.5,175,-182.5,175,400,2,
Dana Rygwelski,Raw,SBD,F,F-HW,74.3,75,147.5,-157.5,-157.5,,147.5,75,82.5,-87.5,82.5,155,170,-180,170,400,3,
Omaris Cooper,Raw,SBD,F,F-HW,74.6,75,125,145,-152.5,,145,62.5,67.5,-72.5,67.5,165,180,-185,180,392.5,4,
Shannon Thompson,Raw,SBD,F,F-HW,71.3,75,120,-130,-135,,120,67.5,-72.5,-72.5,67.5,130,142.5,150,150,337.5,5,
Jill Mills,Raw,SBD,F,F-HW,78.9,82.5,185,197.5,207.5,,207.5,125,-135,140,140,227.5,245,-250,245,592.5,1,
Alyssa Smith #1,Raw,SBD,F,F-HW,82.5,82.5,175,-190,190,,190,90,95,-100,95,215,-227.5,-227.5,215,500,2,
Kris Clark,Raw,SBD,F,F-HW,77.2,82.5,150,167.5,175,,175,100,-117.5,117.5,117.5,152.5,170,185,185,477.5,3,
Shelly Cannon,Raw,SBD,F,F-MW,55.61,56,110,120,-137.5,,120,65,-77.5,-77.5,65,130,142.5,150,150,335,1,
Noriko Kariya,Raw,SBD,F,F-MW,56,56,122.5,-130,132.5,,132.5,57.5,60,62.5,62.5,127.5,135,140,140,335,2,
Sin Leung,Raw,SBD,F,F-MW,55.7,56,105,110,-115,,110,62.5,67.5,-72.5,67.5,145,-165,-165,145,322.5,3,
Paula Hill,Raw,SBD,F,F-MW,55.5,56,92.5,-107.5,107.5,,107.5,55,-62.5,-62.5,55,127.5,-137.5,-137.5,127.5,290,4,
Jennifer Chu,Raw,SBD,F,F-MW,55.4,56,105,112.5,117.5,,117.5,57.5,62.5,-65,62.5,102.5,-107.5,-107.5,102.5,282.5,5,
Ellen Stein,Raw,SBD,F,F-MW,59.2,60,132.5,142.5,150,,150,75,80,-85,80,160,172.5,182.5,182.5,412.5,1,
Melissa Erwin,Raw,SBD,F,F-MW,59.6,60,112.5,120,-127.5,,120,65,72.5,-75,72.5,142.5,147.5,152.5,152.5,345,2,
Samantha Cohen,Raw,SBD,F,F-MW,58.7,60,102.5,115,-120,,115,77.5,82.5,-85,82.5,115,-127.5,137.5,137.5,335,3,
Claudia Saillant,Raw,SBD,F,F-LW,43.7,44,82.5,85,-90,,85,47.5,52.5,55,55,102.5,115,120,120,260,1,
Jenn Rotsinger,Raw,SBD,F,F-LW,51.6,52,135,142.5,147.5,,147.5,77.5,82.5,85,85,165,177.5,-180,177.5,410,1,
Leah Gitterman,Raw,SBD,F,F-LW,51.2,52,100,-107.5,107.5,,107.5,50,52.5,-55,52.5,127.5,-137.5,-137.5,127.5,287.5,2,
Lisa Guggisberg,Raw,SBD,F,F-LW,48.5,52,-95,95,-100,,95,50,-52.5,-52.5,50,120,127.5,-132.5,127.5,272.5,3,
Cynthia St. Clair,Raw,SBD,F,F-LW,51.9,52,77.5,82.5,85,,85,40,42.5,45,45,120,127.5,130,130,260,4,
Brooke Straub,Raw,SBD,F,F-LW,52,52,80,95,-102.5,,95,47.5,55,-60,55,95,105,-112.5,105,255,5,
Casey Williams #1,Wraps,SBD,M,M-HW,106.6,110,320,342.5,-355,,342.5,212.5,235,240,240,310,-330,330,330,912.5,1,
Lance Hickey,Wraps,SBD,M,M-HW,109.6,110,305,-332.5,-332.5,,305,167.5,182.5,,182.5,305,332.5,340,340,827.5,2,
Steve Goggins,Wraps,SBD,M,M-HW,109.4,110,327.5,-365,-365,,327.5,160,,,160,295,-340,-340,295,782.5,3,
Michael Zundelevich,Wraps,SBD,M,M-HW,107.8,110,240,260,272.5,,272.5,185,210,215,215,265,285,292.5,292.5,780,4,
Anthony Vidal,Wraps,SBD,M,M-HW,107.7,110,255,267.5,-277.5,,267.5,215,-230,-230,215,255,272.5,-280,272.5,755,5,
Ryan Conley,Wraps,SBD,M,M-HW,108.2,110,267.5,-287.5,-287.5,,267.5,172.5,185,-190,185,272.5,295,-305,295,747.5,6,
Collin Hughes,Wraps,SBD,M,M-HW,102.6,110,250,267.5,-287.5,,267.5,172.5,-180,-180,172.5,255,-265,,255,695,7,
John Carydes,Wraps,SBD,M,M-Hw,124,125,325,345,357.5,,357.5,210,220,222.5,222.5,330,342.5,-352.5,342.5,922.5,1,
Mark Miller #1,Wraps,SBD,M,M-HW,122.6,125,342.5,-352.5,-352.5,,342.5,205,220,-225,220,325,337.5,-345,337.5,900,2,
Dustin Phelps,Wraps,SBD,M,M-HW,123.2,125,275,305,320,,320,142.5,150,,150,275,292.5,-302.5,292.5,762.5,3,
Phil Maranto,Wraps,SBD,M,M-HW,120.6,125,325,-342.5,342.5,,342.5,202.5,210,217.5,217.5,100,200,-347.5,200,760,4,
Matt Wenning,Raw,SBD,M,M-HW,133.4,140,330,355,377.5,,377.5,237.5,260,275,275,285,-320,,285,937.5,1,USA
Harmon Rickman,Wraps,SBD,M,M-HW,134.9,140,332.5,352.5,-367.5,,352.5,192.5,-212.5,212.5,212.5,285,305,315,315,880,2,
Richard Ficca,Wraps,SBD,M,M-HW,139.7,140,-292.5,292.5,307.5,,307.5,240,260,-272.5,260,285,295,,295,862.5,3,
Andrey Malanichev,Wraps,SBD,M,M-HW,145.4,140+,420,440,460,,460,240,250,260,260,382.5,400,,400,1120,1,Russia
Nate McCoole,Wraps,SBD,M,M-HW,155.8,140+,305,327.5,350,,350,202.5,215,227.5,227.5,315,340,362.5,362.5,940,2,
Derek Kendall,Wraps,SBD,M,M-HW,156.2,140+,392.5,427.5,-455,,427.5,240,255,272.5,272.5,230,,,230,930,3,
Dominick Matrana,Wraps,SBD,M,M-HW,171.1,140+,-300,315,,,315,225,232.5,237.5,237.5,355,365,375,375,927.5,4,
Jesse Kellum,Wraps,SBD,M,M-MW,89.6,90,307.5,-327.5,-345,,307.5,212.5,217.5,-220,217.5,287.5,-297.5,-297.5,287.5,812.5,1,
Carlos Moran,Wraps,SBD,M,M-MW,89.1,90,285,300,-310,,300,185,-190,-190,185,285,-305,-305,285,770,2,
Colin Evans,Wraps,SBD,M,M-MW,89.3,90,-275,275,282.5,,282.5,215,-230,-230,215,-260,260,-275,260,757.5,3,
Ibn Mahama,Wraps,SBD,M,M-MW,90,90,272.5,-295,-295,,272.5,-182.5,182.5,-190,182.5,272.5,295,-307.5,295,750,4,
Matthew Levine,Wraps,SBD,M,M-MW,89.3,90,-250,250,272.5,,272.5,160,-167.5,-167.5,160,255,265,-272.5,265,697.5,5,
Kevin Oak,Wraps,SBD,M,M-MW,99,100,320,-330,,,320,205,215,222.5,222.5,275,300,322.5,322.5,865,1,
Carlos Reyes #1,Wraps,SBD,M,M-MW,98.8,100,300,330,345,,345,185,-200,200,200,285,305,318,318,863,2,
Tee Cummins,Wraps,SBD,M,M-MW,99.3,100,327.5,347.5,-365,,347.5,177.5,187.5,192.5,192.5,295,312.5,-322.5,312.5,852.5,3,USA
Ernie Lilliebridge Jr,Wraps,SBD,M,M-MW,99.7,100,295,320,330,,330,185,192.5,200,200,320,-342.5,-342.5,320,850,4,USA
Mark Greenstein,Wraps,SBD,M,M-MW,99,100,285,300,-312.5,,300,200,212.5,-227.5,212.5,285,305,,305,817.5,5,
David LaMartina,Wraps,SBD,M,M-MW,98.5,100,300,320,-330,,320,155,-170,170,170,317.5,-340,-340,317.5,807.5,6,
Paul Oneid,Wraps,SBD,M,M-MW,98.8,100,292.5,305,-320,,305,185,190,-192.5,190,292.5,-305,-305,292.5,787.5,7,
Mike Bishop,Wraps,SBD,M,M-MW,98.9,100,-265,265,280,,280,175,180,-187.5,180,295,315,-322.5,315,775,8,
Alastair MacNicol,Wraps,SBD,M,M-MW,99,100,240,250,265,,265,160,165,170,170,285,325,-327.5,325,760,9,Canada
John Petruzzi,Wraps,SBD,M,M-MW,97.2,100,-285,-285,-285,,,-195,,,,-295,,,,,DQ,
Richard Hawthorne,Wraps,SBD,M,M-LW,58.8,60,202.5,215,227.5,,227.5,115,122.5,127.5,127.5,242.5,265,-272.5,265,620,1,
Brandon Smitley,Wraps,SBD,M,M-LW,59.7,60,202.5,227.5,-237.5,,227.5,-125,125,137.5,137.5,212.5,227.5,-235,227.5,592.5,2,
Scott Desinor,Wraps,SBD,M,M-LW,59.9,60,130,-150,-150,,130,92.5,-97.5,-97.5,92.5,190,205,-210,205,427.5,3,
Eric Talmant,Wraps,SBD,M,M-LW,67.5,67.5,217.5,247.5,252.5,,252.5,110,117.5,122.5,122.5,247.5,282.5,,282.5,657.5,1,
Kyle Keough,Wraps,SBD,M,M-LW,67.5,67.5,205,222.5,237.5,,237.5,127.5,137.5,145,145,240,255,-265,255,637.5,2,
Joe Morrow,Wraps,SBD,M,M-LW,60.4,67.5,192.5,207.5,-217.5,,207.5,127.5,137.5,-142.5,137.5,240,260,-272.5,260,605,3,
Bill Lotter,Wraps,SBD,M,M-LW,74.3,75,-225,225,237.5,,237.5,127.5,135,140,140,257.5,270,-275,270,647.5,1,
Jason Schultz,Wraps,SBD,M,M-LW,74.9,75,227.5,237.5,245,,245,137.5,145,147.5,147.5,230,245,-250,245,637.5,2,
Nathan Poage,Wraps,SBD,M,M-LW,74.2,75,200,217.5,-227.5,,217.5,105,120,-125,120,235,265,272.5,272.5,610,3,
George Lewis Grieve,Wraps,SBD,M,M-LW,80.7,82.5,215,235,245,,245,160,172.5,-182.5,172.5,250,272.5,-292.5,272.5,690,1,
Zack Parker,Wraps,SBD,M,M-LW,82.1,82.5,230,240,-245,,240,150,-157.5,-157.5,150,277.5,-282.5,,277.5,667.5,2,
Wesley Keith,Wraps,SBD,M,M-LW,80.3,82.5,220,-235,-235,,220,152.5,160,-165,160,265,277.5,-290,277.5,657.5,3,
Jorge Unigarro,Wraps,SBD,M,M-LW,81.8,82.5,202.5,212.5,-217.5,,212.5,142.5,150,-157.5,150,250,265,-272.5,265,627.5,4,
Larry Dyles,Wraps,SBD,M,M-LW,81.5,82.5,-272.5,-272.5,-272.5,,,-182.5,,,,,,,,,DQ,
Irina Petrovich,Wraps,SBD,F,F-HW,67.2,67.5,165,172.5,177.5,,177.5,105,115,117.5,117.5,180,205,-212.5,205,500,1,
Tarra Oravec,Wraps,SBD,F,F-HW,81.8,82.5,135,147.5,152.5,,152.5,80,90,-92.5,90,170,190,-197.5,190,432.5,1,
Mindy Underwood,Wraps,SBD,F,F-HW,77,82.5,-150,-150,150,,150,92.5,100,-105,100,165,170,-182.5,170,420,2,
Ansley Huffman,Wraps,SBD,F,F-HW,104.3,90+,172.5,185,-202.5,,185,77.5,90,97.5,97.5,172.5,187.5,195,195,477.5,1,
Shana Miller,Wraps,SBD,F,F-LW,43.9,44,102.5,-115,115,,115,60,65,67.5,67.5,105,117.5,125,125,307.5,1,
Naomi Kutin,Raw,SBD,F,F-LW,43.3,44,95,-105,105,,105,42.5,45,-47.5,45,102.5,112.5,120,120,270,2,
April Shumaker,Wraps,SBD,F,F-LW,46.5,48,112.5,-122.5,122.5,,122.5,95,100,-103.5,100,137.5,142.5,147.5,147.5,370,1,
Lisa Rothman,Wraps,SBD,F,F-LW,47.6,48,102.5,110,-115,,110,62.5,-65,-65,62.5,-155,-155,-155,,,DQ,
Caitlyn Trout,Wraps,SBD,F,F-LW,55,56,160,170,177.5,,177.5,72.5,77.5,-80,77.5,165,175,-177.5,175,430,1,
Stephanie Tomlinson,Wraps,SBD,F,F-LW,59.3,60,135,-150,-150,,135,85,92.5,-95,92.5,155,162.5,-165,162.5,390,1,
Mylene Silva,Wraps,SBD,F,F-LW,60,60,122.5,132.5,140,,140,-80,80,85,85,127.5,137.5,145,145,370,2,
