Name,Sex,Equipment,Division,BirthDate,BirthYear,Age,WeightClassKg,BodyweightKg,Squat1Kg,Squat2Kg,Squat3Kg,Best3SquatKg,Bench1Kg,Bench2Kg,Bench3Kg,Best3BenchKg,Deadlift1Kg,Deadlift2Kg,Deadlift3Kg,Best3DeadliftKg,TotalKg,Event,Place,Team
Trang Sam Thu,F,Wraps,Open,,,27,52,50.8,135,-140,-140,135,72.5,75,-77.5,75,130,135,140,140,350,SBD,1,Team Wrocław
Paula Wasilewska,F,Wraps,Open,,,24,52,52,120,-127.5,-127.5,120,70,75,-80,75,130,140,152.5,152.5,347.5,SBD,2,Wola Mocy
Natalia Soboń,F,Wraps,Open,,,27,52,49.4,115,120,-122.5,120,50,52.5,-55,52.5,127.5,135,140,140,312.5,SBD,3,
Klaudia Madeja,F,Raw,Open,,,21,48,47.3,85,92.5,-97.5,92.5,47.5,-50,-50,47.5,130,135,140,140,280,SBD,4,Akademia Wojsk Lądowych/ Powerlifting Bears
Paulina Szołtysik,F,Wraps,Open,,,24,52,51.5,-85,87.5,-95,87.5,50,-57.5,-57.5,50,120,127.5,132.5,132.5,270,SBD,5,BORN 2BE Strong
Marlena Dańków,F,Wraps,Open,,,28,56,55.8,142.5,-145,-145,142.5,62.5,65,-67.5,65,135,140,-142.5,140,347.5,SBD,1,Metro-Flex Wrocław
Małgorzata Staniszewska,F,Wraps,Open,,,32,56,54,115,-120,120,120,57.5,60,-62.5,60,140,145,-150,145,325,SBD,2,Team Wrocław
Hanna Opiołka,F,Raw,Open,,,24,56,55,-100,100,-107.5,100,60,65,-67.5,65,-120,125,127.5,127.5,292.5,SBD,3,PowerliftingBears TEAM
Natalia Wencel,F,Wraps,Open,,,24,56,54.6,100,107.5,112.5,112.5,65,-67.5,67.5,67.5,95,105,110,110,290,SBD,4,Polish Barbells
Monika Sykała,F,Wraps,Open,,,36,56,53.5,102.5,110,-115,110,40,42.5,-47.5,42.5,117.5,125,-130,125,277.5,SBD,5,KS Outlaw Barbell Gdynia
Justyna Kopka,F,Wraps,Open,,,26,56,54.5,95,105,-107.5,105,42.5,47.5,-52.5,47.5,100,110,115,115,267.5,SBD,6,6 batalion powietrznodesantowy
Kasandra Patelczyk,F,Wraps,Open,,,22,60,58.8,170,180,-190,180,80,82.5,-85,82.5,165,175,185,185,447.5,SBD,1,Husarz Team
Inga Dynowska,F,Wraps,Open,,,26,60,56.6,105,110,115,115,62.5,65,67.5,67.5,135,145,155,155,337.5,SBD,2,Polish Barbells
Aleksandra Paziewska,F,Wraps,Open,,,18,60,59.9,115,122.5,132.5,132.5,57.5,-60,-60,57.5,117.5,125,-130,125,315,SBD,3,Husarz Team
Kinga Kostrzewa,F,Wraps,Open,,,24,60,56.1,100,-105,105,105,65,67.5,-70,67.5,115,122.5,-127.5,122.5,295,SBD,4,Mrowisko Powerlifting Team
Natalia Mazur,F,Wraps,Open,,,23,60,59.2,95,102.5,110,110,55,57.5,60,60,105,112.5,120,120,290,SBD,5,Polish Barbells
Zuzanna Kozłowska,F,Wraps,Open,,,17,60,59.6,100,105,110,110,50,-55,55,55,112.5,120,125,125,290,SBD,6,
Maria Siwakowska,F,Wraps,Open,,,33,60,58.8,100,105,-107.5,105,55,57.5,-60,57.5,120,-128,-128,120,282.5,SBD,7,Polish Barbells
Julia Chowaniak,F,Wraps,Open,,,14,60,58.1,55,60,65,65,-35,40,42.5,42.5,67.5,75,-80,75,182.5,SBD,8,Metro-Flex Wrocław
Aleksandra Szymczykowska,F,Wraps,Open,,,24,67.5,60.4,165,175,185,185,105,110,-115,110,165,175,-180,175,470,SBD,1,Wola Mocy
Daria Zielińska,F,Wraps,Open,,,20,67.5,66.8,157.5,165,170,170,75,80,85,85,172.5,180,185,185,440,SBD,2,Podsztanga.pl
Wiktoria Grzywa,F,Wraps,Open,,,21,67.5,66.2,145,157.5,165,165,75,82.5,-85,82.5,170,180,-187.5,180,427.5,SBD,3,Podsztanga.pl
Janina Łyczko-Schmidt,F,Wraps,Open,,,40,67.5,66.7,-150,150,-160,150,75,80,85,85,155,165,175,175,410,SBD,4,Podsztanga.pl
Oliwia Sierzchała,F,Wraps,Open,,,21,67.5,66.9,147.5,160,170,170,75,80,-82.5,80,142.5,152.5,160,160,410,SBD,5,Podsztanga.pl
Anna Fistek,F,Wraps,Open,,,25,67.5,65.5,157.5,165,-177.5,165,75,80,82.5,82.5,135,142.5,150,150,397.5,SBD,6,Turbo Dzik Team
Agata Kwiatkowska,F,Wraps,Open,,,26,67.5,65.3,145,152.5,-157.5,152.5,75,77.5,-80,77.5,145,155,165,165,395,SBD,7,Husarz Team
Natalia Hupało,F,Wraps,Open,,,27,67.5,66.7,140,150,155,155,77.5,85,-90,85,135,145,-150,145,385,SBD,8,
Wiktoria Szydłowska,F,Wraps,Open,,,23,67.5,63.4,-150,150,-160,150,70,-75,-75,70,132.5,142.5,150,150,370,SBD,9,Potwory Tybory
Sylwia Pakuła,F,Wraps,Open,,,24,67.5,65.9,135,145,-155,145,52.5,55,-57.5,55,160,170,-175,170,370,SBD,10,Polish Barbells
Kamila Kowalska,F,Wraps,Open,,,28,67.5,66.9,90,100,110,110,55,60,65,65,145,155,160,160,335,SBD,11,Akademia Wojsk Lądowych
Kinga Łątkowska,F,Wraps,Open,,,18,67.5,66.3,105,115,122.5,122.5,55,60,-65,60,130,140,147.5,147.5,330,SBD,12,Mendelejew Team
Kateryna Khomych,F,Wraps,Open,,,41,67.5,61.7,102.5,,-110,102.5,55,-57.5,60,60,-135,140,-145,140,302.5,SBD,13,
Jolanta Przerwa-Bech,F,Wraps,Open,,,44,67.5,65.9,-90,90,-100,90,50,52.5,-55,52.5,115,120,125,125,267.5,SBD,14,Silny Bądź
Iwona Kamińska,F,Wraps,Open,,,47,67.5,65,95,-102.5,-102.5,95,47.5,50,52.5,52.5,80,90,-95,90,237.5,SBD,15,Good Lift Grudziądz
Julia Baranowska,F,Wraps,Open,,,26,67.5,63.4,-150,-150,-150,,,,,,,,,,,SBD,DQ,Potwory Tybory
Anna Strach,F,Wraps,Open,,,29,67.5,66.6,-140,-140,-140,,,,,,,,,,,SBD,DQ,Team Wrocław
Anita Rygał,F,Wraps,Open,,,32,75,73.2,165,172.5,180,180,107.5,115,120,120,190,200,-210,200,500,SBD,1,Mendelejew Team
Marta Zawadzka,F,Wraps,Open,,,26,75,70,160,170,-180,170,95,100,102.5,102.5,155,165,170,170,442.5,SBD,2,Team Wrocław
Marta Dąbrowska,F,Wraps,Open,,,33,75,72.2,155,165,-172.5,165,80,85,-90,85,170,177.5,-182.5,177.5,427.5,SBD,3,Podsztanga.pl
Wiktoria Paga,F,Wraps,Open,,,27,75,74.6,140,150,170,170,80,85,87.5,87.5,130,140,-150,140,397.5,SBD,4,Mendelejew Team/3Podkarpacka Brygada Obrony Terytorialnej
Oliwia Lasak,F,Wraps,Open,,,24,75,75,105,112.5,117.5,117.5,60,62.5,65,65,140,147.5,-150,147.5,330,SBD,5,Mrowisko Powerlifting Team
Marta Mocek,F,Wraps,Open,,,30,75,69.3,-125,125,-130,125,47.5,50,-52.5,50,145,152.5,-160,152.5,327.5,SBD,6,Husarz Team
Karolina Wysocka,F,Wraps,Open,,,24,75,70.4,122.5,130,-137.5,130,55,60,-62.5,60,120,127.5,132.5,132.5,322.5,SBD,7,
Andżelika Maziarska,F,Wraps,Open,,,32,75,70.3,92.5,100,105,105,52.5,55,-57.5,55,110,120,125,125,285,SBD,8,Good Lift Grudziądz
Karolina Pempera,F,Wraps,Open,,,34,75,71.1,97.5,105,-110,105,55,-57.5,57.5,57.5,115,120,-127.5,120,282.5,SBD,9,Legion Team
Marta Kolankiewicz,F,Wraps,Open,,,15,75,72.9,60,65,72.5,72.5,40,45,-47.5,45,80,85,90,90,207.5,SBD,10,
Aniela Marciniszyn,F,Wraps,Open,,,30,75,74.4,-90,-90,-90,,,,,,,,,,,SBD,DQ,Polish Barbells
Marzena Wierzbicka,F,Wraps,Open,,,33,82.5,79.5,215,225,230,230,105,112.5,117.5,117.5,230,-252.5,,230,577.5,SBD,1,Mendelejew Team
Marcelina Łukasiewicz,F,Wraps,Open,,,25,82.5,79.2,135,145,150,150,55,57.5,-60,57.5,160,167.5,172.5,172.5,380,SBD,2,Polish Barbells
Izabela Rozkwitalska,F,Wraps,Open,,,26,82.5,75.8,-150,150,160,160,60,62.5,-65,62.5,145,150,155,155,377.5,SBD,3,Potwory Tybory
Noemi Nogaczewska,F,Wraps,Open,,,23,82.5,79.9,140,147.5,-152.5,147.5,82.5,85,-87.5,85,-140,140,145,145,377.5,SBD,4,Podsztanga.pl
Daria Postrożna,F,Wraps,Open,,,22,82.5,78.6,135,142.5,-150,142.5,67.5,-70,-70,67.5,140,150,155,155,365,SBD,5,Husarz Team
Gabriela Poławska,F,Wraps,Open,,,19,82.5,81.3,130,140,-150,140,55,60,62.5,62.5,125,135,140,140,342.5,SBD,6,Turbo Dzik Team
Olga Pawlicka,F,Wraps,Open,,,22,82.5,77,107.5,115,-120,115,65,67.5,-70,67.5,130,137.5,-145,137.5,320,SBD,7,Mrowisko Powerlifting Team
Joanna Piotrowska,F,Wraps,Open,,,44,82.5,81.9,45,50,55,55,25,-30,-30,25,70,75,80,80,160,SBD,8,Wola Mocy
Karolina Świderska,F,Wraps,Open,,,39,90,88.1,142.5,-147.5,-147.5,142.5,52.5,57.5,-60,57.5,155,162.5,-170,162.5,362.5,SBD,1,Team Wrocław
Julia Sulich,F,Wraps,Open,,,17,90,87.4,100,110,-120,110,57.5,62.5,-65,62.5,95,-105,105,105,277.5,SBD,2,Team Wrocław
Anna Patrzek,F,Wraps,Open,,,35,90+,94.7,160,170,177.5,177.5,90,95,100,100,160,-170,175,175,452.5,SBD,1,Podsztanga.pl
Ewelina Bala,F,Wraps,Open,,,22,90+,97.1,160,-170,172.5,172.5,62.5,67.5,-72.5,67.5,150,160,-170,160,400,SBD,2,Husarz Team
Magdalena Plewa,F,Wraps,Open,,,45,90+,95.3,130,137.5,142.5,142.5,60,65,-67.5,65,-120,127.5,132.5,132.5,340,SBD,3,Wola Mocy
Hanna Dobrowolska,F,Wraps,Open,,,24,90+,102.2,150,-160,-160,150,60,62.5,65,65,125,140,-150,140,355,SBD,1,Polish Barbells
Julia Chowaniak,F,Wraps,T13-15,,,14,60,58.1,55,60,65,65,-35,40,42.5,42.5,67.5,75,-80,75,182.5,SBD,1,Metro-Flex Wrocław
Marta Kolankiewicz,F,Wraps,T13-15,,,15,75,72.9,60,65,72.5,72.5,40,45,-47.5,45,80,85,90,90,207.5,SBD,2,
Zuzanna Kozłowska,F,Wraps,T16-17,,,17,60,59.6,100,105,110,110,50,-55,55,55,112.5,120,125,125,290,SBD,1,
Julia Sulich,F,Wraps,T16-17,,,17,90,87.4,100,110,-120,110,57.5,62.5,-65,62.5,95,-105,105,105,277.5,SBD,2,Team Wrocław
Aleksandra Paziewska,F,Wraps,T18-19,,,18,60,59.9,115,122.5,132.5,132.5,57.5,-60,-60,57.5,117.5,125,-130,125,315,SBD,1,Husarz Team
Kinga Łątkowska,F,Wraps,T18-19,,,18,67.5,66.3,105,115,122.5,122.5,55,60,-65,60,130,140,147.5,147.5,330,SBD,2,Mendelejew Team
Gabriela Poławska,F,Wraps,T18-19,,,19,82.5,81.3,130,140,-150,140,55,60,62.5,62.5,125,135,140,140,342.5,SBD,3,Turbo Dzik Team
Kasandra Patelczyk,F,Wraps,J20-23,,,22,60,58.8,170,180,-190,180,80,82.5,-85,82.5,165,175,185,185,447.5,SBD,1,Husarz Team
Klaudia Madeja,F,Wraps,J20-23,,,21,48,47.3,85,92.5,-97.5,92.5,47.5,-50,-50,47.5,130,135,140,140,280,SBD,2,Akademia Wojsk Lądowych/ Powerlifting Bears
Natalia Mazur,F,Wraps,J20-23,,,23,60,59.2,95,102.5,110,110,55,57.5,60,60,105,112.5,120,120,290,SBD,3,Polish Barbells
Daria Zielińska,F,Wraps,J20-23,,,20,67.5,66.8,157.5,165,170,170,75,80,85,85,172.5,180,185,185,440,SBD,1,Podsztanga.pl
Wiktoria Grzywa,F,Wraps,J20-23,,,21,67.5,66.2,145,157.5,165,165,75,82.5,-85,82.5,170,180,-187.5,180,427.5,SBD,2,Podsztanga.pl
Oliwia Sierzchała,F,Wraps,J20-23,,,21,67.5,66.9,147.5,160,170,170,75,80,-82.5,80,142.5,152.5,160,160,410,SBD,3,Podsztanga.pl
Wiktoria Szydłowska,F,Wraps,J20-23,,,23,67.5,63.4,-150,150,-160,150,70,-75,-75,70,132.5,142.5,150,150,370,SBD,4,Potwory Tybory
Noemi Nogaczewska,F,Wraps,J20-23,,,23,82.5,79.9,140,147.5,-152.5,147.5,82.5,85,-87.5,85,-140,140,145,145,377.5,SBD,1,Podsztanga.pl
Daria Postrożna,F,Wraps,J20-23,,,22,82.5,78.6,135,142.5,-150,142.5,67.5,-70,-70,67.5,140,150,155,155,365,SBD,2,Husarz Team
Ewelina Bala,F,Wraps,J20-23,,,22,90+,97.1,160,-170,172.5,172.5,62.5,67.5,-72.5,67.5,150,160,-170,160,400,SBD,3,Husarz Team
Olga Pawlicka,F,Wraps,J20-23,,,22,82.5,77,107.5,115,-120,115,65,67.5,-70,67.5,130,137.5,-145,137.5,320,SBD,4,Mrowisko Powerlifting Team
Kasandra Patelczyk,F,Wraps,J20-23,,,22,60,58.8,170,180,-190,180,80,82.5,-85,82.5,165,175,185,185,447.5,SBD,1,Husarz Team
Daria Zielińska,F,Wraps,J20-23,,,20,67.5,66.8,157.5,165,170,170,75,80,85,85,172.5,180,185,185,440,SBD,2,Podsztanga.pl
Wiktoria Grzywa,F,Wraps,J20-23,,,21,67.5,66.2,145,157.5,165,165,75,82.5,-85,82.5,170,180,-187.5,180,427.5,SBD,3,Podsztanga.pl
Oliwia Sierzchała,F,Wraps,J20-23,,,21,67.5,66.9,147.5,160,170,170,75,80,-82.5,80,142.5,152.5,160,160,410,SBD,4,Podsztanga.pl
Wiktoria Szydłowska,F,Wraps,J20-23,,,23,67.5,63.4,-150,150,-160,150,70,-75,-75,70,132.5,142.5,150,150,370,SBD,5,Potwory Tybory
Klaudia Madeja,F,Wraps,J20-23,,,21,48,47.3,85,92.5,-97.5,92.5,47.5,-50,-50,47.5,130,135,140,140,280,SBD,6,Akademia Wojsk Lądowych/ Powerlifting Bears
Noemi Nogaczewska,F,Wraps,J20-23,,,23,82.5,79.9,140,147.5,-152.5,147.5,82.5,85,-87.5,85,-140,140,145,145,377.5,SBD,7,Podsztanga.pl
Daria Postrożna,F,Wraps,J20-23,,,22,82.5,78.6,135,142.5,-150,142.5,67.5,-70,-70,67.5,140,150,155,155,365,SBD,8,Husarz Team
Ewelina Bala,F,Wraps,J20-23,,,22,90+,97.1,160,-170,172.5,172.5,62.5,67.5,-72.5,67.5,150,160,-170,160,400,SBD,9,Husarz Team
Natalia Mazur,F,Wraps,J20-23,,,23,60,59.2,95,102.5,110,110,55,57.5,60,60,105,112.5,120,120,290,SBD,10,Polish Barbells
Olga Pawlicka,F,Wraps,J20-23,,,22,82.5,77,107.5,115,-120,115,65,67.5,-70,67.5,130,137.5,-145,137.5,320,SBD,11,Mrowisko Powerlifting Team
Aleksandra Szymczykowska,F,Wraps,S24-32,,,24,67.5,60.4,165,175,185,185,105,110,-115,110,165,175,-180,175,470,SBD,1,Wola Mocy
Anita Rygał,F,Wraps,S24-32,,,32,75,73.2,165,172.5,180,180,107.5,115,120,120,190,200,-210,200,500,SBD,2,Mendelejew Team
Thu Trang Sam,F,Wraps,S24-32,,,27,52,50.8,135,-140,-140,135,72.5,75,-77.5,75,130,135,140,140,350,SBD,3,Team Wrocław
Marta Zawadzka,F,Wraps,S24-32,,,26,75,70,160,170,-180,170,95,100,102.5,102.5,155,165,170,170,442.5,SBD,4,Team Wrocław
Paula Wasilewska,F,Wraps,S24-32,,,24,52,52,120,-127.5,-127.5,120,70,75,-80,75,130,140,152.5,152.5,347.5,SBD,5,Wola Mocy
Anna Fistek,F,Wraps,S24-32,,,25,67.5,65.5,157.5,165,-177.5,165,75,80,82.5,82.5,135,142.5,150,150,397.5,SBD,6,Turbo Dzik Team
Agata Kwiatkowska,F,Wraps,S24-32,,,26,67.5,65.3,145,152.5,-157.5,152.5,75,77.5,-80,77.5,145,155,165,165,395,SBD,7,Husarz Team
Marlena Dańków,F,Wraps,S24-32,,,28,56,55.8,142.5,-145,-145,142.5,62.5,65,-67.5,65,135,140,-142.5,140,347.5,SBD,8,Metro-Flex Wrocław
Natalia Soboń,F,Wraps,S24-32,,,27,52,49.4,115,120,-122.5,120,50,52.5,-55,52.5,127.5,135,140,140,312.5,SBD,9,
Natalia Hupało,F,Wraps,S24-32,,,27,67.5,66.7,140,150,155,155,77.5,85,-90,85,135,145,-150,145,385,SBD,10,
Inga Dynowska,F,Wraps,S24-32,,,26,60,56.6,105,110,115,115,62.5,65,67.5,67.5,135,145,155,155,337.5,SBD,11,Polish Barbells
Małgorzata Staniszewska,F,Wraps,S24-32,,,32,56,54,115,-120,120,120,57.5,60,-62.5,60,140,145,-150,145,325,SBD,12,Team Wrocław
Sylwia Pakuła,F,Wraps,S24-32,,,24,67.5,65.9,135,145,-155,145,52.5,55,-57.5,55,160,170,-175,170,370,SBD,13,Polish Barbells
Wiktoria Paga,F,Wraps,S24-32,,,27,75,74.6,140,150,170,170,80,85,87.5,87.5,130,140,-150,140,397.5,SBD,14,Mendelejew Team/3Podkarpacka Brygada Obrony Terytorialnej
Izabela Rozkwitalska,F,Wraps,S24-32,,,26,82.5,75.8,-150,150,160,160,60,62.5,-65,62.5,145,150,155,155,377.5,SBD,15,Potwory Tybory
Hanna Opiołka,F,Wraps,S24-32,,,24,56,55,-100,100,-107.5,100,60,65,-67.5,65,-120,125,127.5,127.5,292.5,SBD,16,PowerliftingBears TEAM
Natalia Wencel,F,Wraps,S24-32,,,24,56,54.6,100,107.5,112.5,112.5,65,-67.5,67.5,67.5,95,105,110,110,290,SBD,17,Polish Barbells
Kinga Kostrzewa,F,Wraps,S24-32,,,24,60,56.1,100,-105,105,105,65,67.5,-70,67.5,115,122.5,-127.5,122.5,295,SBD,18,Mrowisko Powerlifting Team
Marcelina Łukasiewicz,F,Wraps,S24-32,,,25,82.5,79.2,135,145,150,150,55,57.5,-60,57.5,160,167.5,172.5,172.5,380,SBD,19,Polish Barbells
Kamila Kowalska,F,Wraps,S24-32,,,28,67.5,66.9,90,100,110,110,55,60,65,65,145,155,160,160,335,SBD,20,Akademia Wojsk Lądowych
Paulina Szołtysik,F,Wraps,S24-32,,,24,52,51.5,-85,87.5,-95,87.5,50,-57.5,-57.5,50,120,127.5,132.5,132.5,270,SBD,21,BORN 2BE Strong
Marta Mocek,F,Wraps,S24-32,,,30,75,69.3,-125,125,-130,125,47.5,50,-52.5,50,145,152.5,-160,152.5,327.5,SBD,22,Husarz Team
Justyna Kopka,F,Wraps,S24-32,,,26,56,54.5,95,105,-107.5,105,42.5,47.5,-52.5,47.5,100,110,115,115,267.5,SBD,23,6 batalion powietrznodesantowy
Karolina Wysocka,F,Wraps,S24-32,,,24,75,70.4,122.5,130,-137.5,130,55,60,-62.5,60,120,127.5,132.5,132.5,322.5,SBD,24,
Oliwia Lasak,F,Wraps,S24-32,,,24,75,75,105,112.5,117.5,117.5,60,62.5,65,65,140,147.5,-150,147.5,330,SBD,25,Mrowisko Powerlifting Team
Hanna Dobrowolska,F,Wraps,S24-32,,,24,90+,102.2,150,-160,-160,150,60,62.5,65,65,125,140,-150,140,355,SBD,26,Polish Barbells
Andżelika Maziarska,F,Wraps,S24-32,,,32,75,70.3,92.5,100,105,105,52.5,55,-57.5,55,110,120,125,125,285,SBD,27,Good Lift Grudziądz
Julia Baranowska,F,Wraps,S24-32,,,26,67.5,63.4,-150,-150,-150,,,,,,,,,,,SBD,DQ,Potwory Tybory
Aniela Marciniszyn,F,Wraps,S24-32,,,30,75,74.4,-90,-90,-90,,,,,,,,,,,SBD,DQ,Polish Barbells
Anna Strach,F,Wraps,S24-32,,,29,67.5,66.6,-140,-140,-140,,,,,,,,,,,SBD,DQ,Team Wrocław
Marzena Wierzbicka,F,Wraps,S33-39,,,33,82.5,79.5,215,225,230,230,105,112.5,117.5,117.5,230,-252.5,,230,577.5,SBD,1,Mendelejew Team
Marta Dąbrowska,F,Wraps,S33-39,,,33,75,72.2,155,165,-172.5,165,80,85,-90,85,170,177.5,-182.5,177.5,427.5,SBD,2,Podsztanga.pl
Anna Patrzek,F,Wraps,S33-39,,,35,90+,94.7,160,170,177.5,177.5,90,95,100,100,160,-170,175,175,452.5,SBD,3,Podsztanga.pl
Monika Sykała,F,Wraps,S33-39,,,36,56,53.5,102.5,110,-115,110,40,42.5,-47.5,42.5,117.5,125,-130,125,277.5,SBD,4,KS Outlaw Barbell Gdynia
Maria Siwakowska,F,Wraps,S33-39,,,33,60,58.8,100,105,-107.5,105,55,57.5,-60,57.5,120,-128,-128,120,282.5,SBD,5,Polish Barbells
Karolina Świderska,F,Wraps,S33-39,,,39,90,88.1,142.5,-147.5,-147.5,142.5,52.5,57.5,-60,57.5,155,162.5,-170,162.5,362.5,SBD,6,Team Wrocław
Karolina Pempera,F,Wraps,S33-39,,,34,75,71.1,97.5,105,-110,105,55,-57.5,57.5,57.5,115,120,-127.5,120,282.5,SBD,7,Legion Team
Janina Łyczko-Schmidt,F,Wraps,M40-44,,,40,67.5,66.7,-150,150,-160,150,75,80,85,85,155,165,175,175,410,SBD,1,Podsztanga.pl
Kateryna Khomych,F,Wraps,M40-44,,,41,67.5,61.7,102.5,,-110,102.5,55,-57.5,60,60,-135,140,-145,140,302.5,SBD,2,
Jolanta Przerwa-Bech,F,Wraps,M40-44,,,44,67.5,65.9,-90,90,-100,90,50,52.5,-55,52.5,115,120,125,125,267.5,SBD,3,Silny Bądź
Joanna Piotrowska,F,Wraps,M40-44,,,44,82.5,81.9,45,50,55,55,25,-30,-30,25,70,75,80,80,160,SBD,4,Wola Mocy
Magdalena Plewa,F,Wraps,M45-49,,,45,90+,95.3,130,137.5,142.5,142.5,60,65,-67.5,65,-120,127.5,132.5,132.5,340,SBD,1,Wola Mocy
Iwona Kamińska,F,Wraps,M45-49,,,47,67.5,65,95,-102.5,-102.5,95,47.5,50,52.5,52.5,80,90,-95,90,237.5,SBD,2,Good Lift Grudziądz
Tomasz Redloch,M,Wraps,Open,,,27,67.5,67.3,175,192.5,-200,192.5,95,105,110,110,200,212.5,217.5,217.5,520,SBD,1,Polish Barbells
Piotr Stefaniuk,M,Wraps,Open,,,31,67.5,66,-155,160,-175,160,120,122.5,125,125,220,230,-235,230,515,SBD,2,Mendelejew Team
Oleksandr Trondiuk,M,Wraps,Open,,,26,75,74.5,225,-240,-240,225,115,120,125,125,262.5,275,280,280,630,SBD,1,
Mateusz Wójtowicz,M,Wraps,Open,,,28,75,74.9,200,210,215,215,135,-142.5,145,145,230,240,-245,240,600,SBD,2,18 Batalion Dowodzenia
Krzysztof Kraśniewki,M,Wraps,Open,,,29,75,74.2,215,-225,225,225,135,140,145,145,220,-227.5,-227.5,220,590,SBD,3,NOMERCY POWERLIFTING
Mateusz Marecki,M,Wraps,Open,,,25,75,70.2,202.5,207.5,-220,207.5,107.5,-112.5,115,115,220,240,252.5,252.5,575,SBD,4,
Patryk Witczak,M,Wraps,Open,,,23,75,74.3,190,-200,-200,190,120,130,140,140,180,200,220,220,550,SBD,5,
Jakub Makosz,M,Wraps,Open,,,19,75,72.7,180,190,-200,190,120,125,-130,125,220,230,-240,230,545,SBD,6,Mendelejew Team
Marcel Marcinek,M,Wraps,Open,,,18,75,74.5,180,190,-200,190,100,105,-107.5,105,-220,220,-240,220,515,SBD,7,
Kamil Osumek,M,Wraps,Open,,,19,75,70,167.5,180,-190,180,77.5,85,90,90,195,210,-215,210,480,SBD,8,Potwory Tybory
Krystian Mróz,M,Wraps,Open,,,24,75,73.5,140,152.5,157.5,157.5,127.5,135,-140,135,170,185,-195,185,477.5,SBD,9,9 Batalion Dowodzenia/ 16 Dywizja Zmechanizowana
Jakub Waligórski,M,Wraps,Open,,,21,75,69.8,150,157.5,-162.5,157.5,105,110,-115,110,190,200,-205,200,467.5,SBD,10,PowerliftingBears TEAM
Kamil Łoziński,M,Wraps,Open,,,19,75,73.5,150,-160,-165,150,102.5,107.5,-110,107.5,200,-207.5,207.5,207.5,465,SBD,11,
Mateusz Mucha,M,Wraps,Open,,,25,75,72.9,165,175,-182.5,175,110,115,120,120,-150,150,155,155,450,SBD,12,
Filip Kaczmarzewski,M,Wraps,Open,,,17,75,74.5,140,145,-150,145,90,92.5,,92.5,190,-205,210,210,447.5,SBD,13,Pogoń Wschowa
Adrian Medyński,M,Wraps,Open,,,17,75,72.1,140,150,155,155,90,95,-97.5,95,150,160,180,180,430,SBD,14,
Kacper Bednarowski,M,Wraps,Open,,,16,75,74.9,135,145,150,150,75,82.5,-85,82.5,165,175,-182.5,175,407.5,SBD,15,NOMERCY POWERLIFTING
Jacek Giernalczyk,M,Wraps,Open,,,17,75,70.2,-120,120,-130,120,55,60,-70,60,140,147.5,155,155,335,SBD,16,Daryl Team
Vladyslav Nefelt,M,Wraps,Open,,,18,75,72.1,-175,-175,-175,,,,,,,,,,,SBD,DQ,
Filip Stelmach,M,Wraps,Open,,,22,75,73.7,-220,-232.5,-232.5,,,,,,,,,,,SBD,DQ,Silny Team
Daniel Chaciński,M,Wraps,Open,,,26,82.5,80.5,235,250,265,265,190,200,-205,200,240,260,-270,260,725,SBD,1,Podsztanga.pl
Marek Sarama,M,Wraps,Open,,,36,82.5,82.3,245,260,-270,260,150,-160,160,160,245,-250,-250,245,665,SBD,2,14 Pułk Przeciwpancerny w Suwałkach
Krystian Kluczyński,M,Wraps,Open,,,22,82.5,78.3,230,245,-255,245,135,142.5,-145,142.5,237.5,252.5,-262.5,252.5,640,SBD,3,NOMERCY POWERLIFTING
Łukasz Babecki,M,Wraps,Open,,,23,82.5,82,220,230,-237.5,230,135,-140,140,140,255,270,-280,270,640,SBD,4,NOMERCY POWERLIFTING
Kamil Ciszewski,M,Wraps,Open,,,20,82.5,80.7,230,-250,-250,230,145,152.5,-155,152.5,205,215,225,225,607.5,SBD,5,Potwory Tybory
Adam Chudaś,M,Wraps,Open,,,26,82.5,79.9,215,225,-235,225,110,115,-117.5,115,230,250,-260,250,590,SBD,6,Polish Barbells
Szymon Laskowski,M,Wraps,Open,,,20,82.5,81.3,210,220,-230,220,112.5,117.5,122.5,122.5,215,225,-232.5,225,567.5,SBD,7,Good Lift Grudziądz
Przemysław Kawczyński,M,Wraps,Open,,,28,82.5,81.7,190,-200,-205,190,120,127.5,-130,127.5,220,230,240,240,557.5,SBD,8,Mendelejew Team/Reprezentacja Polskiej Policji
Jakub Kopońka,M,Wraps,Open,,,19,82.5,78.6,205,-215,-215,205,115,-125,-125,115,210,220,-225,220,540,SBD,9,
Jan Droń,M,Wraps,Open,,,27,82.5,81,190,200,210,210,125,-132.5,132.5,132.5,185,195,-202.5,195,537.5,SBD,10,Protip Team
Jakub Laska,M,Wraps,Open,,,20,82.5,79.4,150,165,180,180,110,120,125,125,210,220,225,225,530,SBD,11,Daryl Team
Oskar Mazurek,M,Wraps,Open,,,25,82.5,81.1,195,-200,-200,195,120,122.5,125,125,195,202.5,210,210,530,SBD,12,Team Wrocław
Dawid Bieńko,M,Wraps,Open,,,17,82.5,79.2,160,180,190,190,117.5,127.5,132.5,132.5,170,190,200,200,522.5,SBD,13,
Kamil Grzegorski,M,Wraps,Open,,,26,82.5,81.1,185,195,200,200,105,112.5,-122.5,112.5,200,-210,210,210,522.5,SBD,14,Ekipa Miami
Witold Studziński,M,Wraps,Open,,,46,82.5,81.6,175,190,-200,190,115,120,122.5,122.5,180,192.5,-200,192.5,505,SBD,15,Turbo Dzik Team
Karol Koenig,M,Wraps,Open,,,18,82.5,81.8,152.5,-162.5,-162.5,152.5,87.5,92.5,-95,92.5,210,-222.5,225,225,470,SBD,16,
Konrad Tarka,M,Wraps,Open,,,20,82.5,77.3,162.5,172.5,-180,172.5,87.5,92.5,-97.5,92.5,180,190,-200,190,455,SBD,17,Husarz Team
Jakub Głowacki,M,Wraps,Open,,,37,82.5,81.1,140,150,160,160,95,100,-105,100,185,195,-202.5,195,455,SBD,18,Elite Powerlifting Team
Robert Glanc,M,Wraps,Open,,,30,82.5,75.3,150,160,170,170,85,92.5,-97.5,92.5,160,170,180,180,442.5,SBD,19,BORN 2BE Strong
Mariusz Salabura,M,Wraps,Open,,,23,82.5,76.4,135,147.5,-155,147.5,77.5,85,90,90,152.5,165,175,175,412.5,SBD,20,NOMERCY POWERLIFTING
Rafael Alfaro Alvarado,M,Wraps,Open,,,19,82.5,81.6,190,-200,-200,190,-125,-130,-130,,,,,,,SBD,DQ,Potwory Tybory
Tomasz Moniak,M,Wraps,Open,,,27,90,89,290,305,315,315,157.5,165,170,170,300,-315,315,315,800,SBD,1,Podsztanga.pl
Mateusz Piórkowski,M,Wraps,Open,,,31,90,89.9,250,260,265,265,170,175,180,180,250,260,275,275,720,SBD,2,Wola Mocy
Karol Opaliński,M,Wraps,Open,,,32,90,86.6,265,285,300,300,120,-130,135,135,265,280,-285,280,715,SBD,3,Potwory Tybory
Sebastian Trybuś,M,Wraps,Open,,,26,90,90,240,-260,260,260,160,-165,,160,270,290,-302.5,290,710,SBD,4,Potwory Tybory
Patryk Chmura,M,Wraps,Open,,,26,90,88,270,290,300,300,150,160,-170,160,230,245,-260,245,705,SBD,5,Mendelejew Team
Kacper Wawrzyniak,M,Wraps,Open,,,21,90,89.7,260,270,-280,270,130,137.5,140,140,270,285,-300,285,695,SBD,6,Wola Mocy
Dominik Kułaga,M,Wraps,Open,,,23,90,87.9,272.5,285,-300,285,135,-140,140,140,265,-275,-275,265,690,SBD,7,NOMERCY POWERLIFTING
Dawid Raczek,M,Wraps,Open,,,31,90,87.4,230,-240,240,240,150,155,-160,155,265,275,,275,670,SBD,8,PowerliftingBears TEAM
Albert Mielczarek,M,Raw,Open,,,24,90,88.2,240,250,,250,140,147.5,-152.5,147.5,250,-270,270,270,667.5,SBD,9,PowerliftingBears TEAM
Adrian Jatczak,M,Wraps,Open,,,28,90,89.2,230,245,250,250,125,132.5,137.5,137.5,250,265,277.5,277.5,665,SBD,10,
Paweł Just,M,Wraps,Open,,,23,90,89.5,280,-300,-300,280,150,-160,-160,150,-225,-232.5,232.5,232.5,662.5,SBD,11,KS Outlaw Barbell Gdynia
Dawid Ożga,M,Wraps,Open,,,23,90,88.9,230,-250,255,255,132.5,140,-145,140,230,247.5,257.5,257.5,652.5,SBD,12,The Lifters
Jakub Tabor,M,Wraps,Open,,,18,90,87.9,240,255,265,265,120,127.5,-130,127.5,240,255,-260,255,647.5,SBD,13,PowerliftingBears TEAM
Kamil Kropidłowski,M,Wraps,Open,,,22,90,83.7,220,230,-240,230,127.5,-135,135,135,255,265,-272.5,265,630,SBD,14,Husarz Team
Kacper Grabowski,M,Wraps,Open,,,23,90,83.2,217.5,227.5,-240,227.5,155,160,165.5,165.5,210,225,-232.5,225,618,SBD,15,KS Outlaw Barbell Gdynia/ Marynarka Wojenna
Michał Jarek,M,Wraps,Open,,,21,90,89.5,215,225,230,230,110,-120,-120,110,255,275,-285,275,615,SBD,16,Garage Barbell Club
Mateusz Babiak,M,Wraps,Open,,,29,90,89.2,200,210,-215,210,160,-170,-170,160,205,220,230,230,600,SBD,17,Metro-Flex Wrocław
Radosław Paździerski,M,Wraps,Open,,,19,90,89.4,205,215,-220,215,145,150,155,155,200,220,230,230,600,SBD,18,Potwory Tybory
Adrian Janecki,M,Wraps,Open,,,22,90,89.2,230,-240,,230,130,137.5,-140,137.5,230,-240,-240,230,597.5,SBD,19,Schabownia Team
Olaf Susicki,M,Wraps,Open,,,24,90,89.7,-240,240,-260,240,125,135,140,140,195,210,-220,210,590,SBD,20,Potwory Tybory
Szymon Brzozowski,M,Wraps,Open,,,27,90,86.2,-215,215,230,230,110,115,117.5,117.5,225,235,-245,235,582.5,SBD,21,Good Lift Grudziądz
Krzysztof Klimentowski,M,Wraps,Open,,,22,90,87.3,210,220,225,225,115,-120,-120,115,225,240,-250,240,580,SBD,22,Polish Barbells
Maciej Możdżeń,M,Wraps,Open,,,21,90,88.5,180,195,-205,195,160,170,175,175,190,200,207.5,207.5,577.5,SBD,23,Team Wrocław
Mikołaj Wawrzykowski,M,Wraps,Open,,,18,90,88.3,180,200,215,215,120,125,-130,125,-210,220,-235,220,560,SBD,24,
Wojciech Kotecki,M,Wraps,Open,,,33,90,89.9,190,200,-205,200,125,130,,130,220,230,,230,560,SBD,25,Legion Team
Dawid Chmielarz,M,Wraps,Open,,,17,90,87.8,180,190,-200,190,120,125,-130,125,215,225,235,235,550,SBD,26,
Kamil Lindecki,M,Wraps,Open,,,41,90,85.1,200,210,220,220,110,115,-117.5,115,180,190,200,200,535,SBD,27,Stronghold Gym
Bartłomiej Woryński,M,Wraps,Open,,,25,90,86.2,205,212.5,-220,212.5,100,107.5,-115,107.5,200,215,-230,215,535,SBD,28,Potwory Tybory
Bartosz Buława,M,Wraps,Open,,,20,90,85.7,190,200,-210,200,97.5,102.5,105,105,200,210,220,220,525,SBD,29,WagonStrenght
Maciej Trzonkowski,M,Wraps,Open,,,19,90,87,-172.5,172.5,-182.5,172.5,110,117.5,-122.5,117.5,230,-242.5,-250,230,520,SBD,30,Armia Trzona
Marcin Matusiak,M,Wraps,Open,,,18,90,84.5,190,,,190,132.5,-140,-147.5,132.5,170,182.5,192.5,192.5,515,SBD,31,
Piotr Celeban,M,Wraps,Open,,,37,90,89.2,175,187.5,195,195,97.5,105,110,110,175,187.5,200,200,505,SBD,32,KS Outlaw Barbell Gdynia
Nikodem Hapka,M,Raw,Open,,,19,90,84,150,160,165,165,110,117.5,-120,117.5,205,220,-230,220,502.5,SBD,33,PowerliftingBears TEAM
Marek Gott,M,Wraps,Open,,,40,90,84.3,150,160,170,170,130,137.5,142.5,142.5,170,180,-187.5,180,492.5,SBD,34,PowerliftingBears TEAM
Fryderyk Buciuto,M,Wraps,Open,,,21,90,85.4,160,175,-182.5,175,110,-120,-122.5,110,180,200,-210,200,485,SBD,35,
Gracjan Brzeziński,M,Wraps,Open,,,17,90,87.1,160,170,-180,170,80,90,-97.5,90,200,220,-230,220,480,SBD,36,Farma Lifterów Wojny
Łukasz Duda,M,Wraps,Open,,,27,90,82.6,157.5,165,-172.5,165,97.5,102.5,-105,102.5,175,185,200,200,467.5,SBD,37,PowerliftingBears TEAM
Marek Jasiński,M,Wraps,Open,,,17,90,87.8,-165,165,-170,165,107.5,-110,-115,107.5,175,182.5,190,190,462.5,SBD,38,Mendelejew Team
Maciej Ciżowski,M,Wraps,Open,,,17,90,87.8,-135,135,142.5,142.5,90,95,-100,95,147.5,155,162.5,162.5,400,SBD,39,PowerliftingBears TEAM
Marcin Oleś,M,Wraps,Open,,,24,90,87.3,215,225,-235,225,155,162.5,-170,162.5,-225,-225,,,387.5,SBD,40,Polish Barbells
Kacper Bąkiewicz,M,Wraps,Open,,,15,90,89.1,-120,120,130,130,65,70,-72.5,70,130,140,-150,140,340,SBD,41,Pogoń Wschowa
Sławomir Sidorowicz,M,Wraps,Open,,,29,100,98.2,280,300,-310,300,180,190,-200,190,320,330,-340,330,820,SBD,1,LZS KS Olszanka Pogorzela SSS
Piotr Woźniak,M,Wraps,Open,,,34,100,98.9,-300,-315,315,315,190,200,-205,200,290,-310,-310,290,805,SBD,2,The Lifters
Michał Marciniak,M,Wraps,Open,,,31,100,99.4,280,290,-300,290,180,-190,190,190,290,300,-322.5,300,780,SBD,3,Good Lift Grudziądz
Łukasz Kojder,M,Wraps,Open,,,29,100,100,245,255,-260,255,180,195,-202.5,195,280,295,310,310,760,SBD,4,
Kacper Uszakiewicz,M,Wraps,Open,,,34,100,94.3,-275,285,-295,285,155,-165,-165,155,295,312.5,-315,312.5,752.5,SBD,5,The Lifters
Bartosz Szczepankiewicz,M,Wraps,Open,,,23,100,99.6,270,281,285,285,165,-175,175,175,280,-297.5,-297.5,280,740,SBD,6,Wola mocy
Bartosz Wulbach,M,Wraps,Open,,,30,100,99.6,280,-290,-290,280,155,160,-162.5,160,270,280,,280,720,SBD,7,Mendelejew Team
Amadeusz Pytyński,M,Wraps,Open,,,30,100,97.9,240,252.5,-260,252.5,165,-170,-170,165,-260,270,282.5,282.5,700,SBD,8,Husarz Team
Michał Czyrek,M,Raw,Open,,,21,100,99.2,260,-270,-270,260,150,-155,-155,150,275,290,-300,290,700,SBD,9,PowerliftingBears TEAM
Arkadiusz Bzdak,M,Wraps,Open,,,21,100,96.6,260,-275,-275,260,160,-170,-170,160,260,270,-275,270,690,SBD,10,Szyman Team
Artur Kozłowski,M,Wraps,Open,,,19,100,98,225,235,-245,235,135,142.5,-145,142.5,250,265,277.5,277.5,655,SBD,11,Kuźnia Formy Siedlce
Mariusz Stachowiak,M,Wraps,Open,,,24,100,92,-225,-225,225,225,157.5,162.5,-170,162.5,220,235,250,250,637.5,SBD,12,Akademia Marynarki Wojennej / Outlaw Barbell
Dawid Holeksa,M,Wraps,Open,,,20,100,95.6,225,240,-255,240,140,145,147.5,147.5,240,250,-260,250,637.5,SBD,13,WagonStrenght
Bartosz Kostuj,M,Wraps,Open,,,29,100,99.4,220,-235,-235,220,130,-135,135,135,250,265,-270,265,620,SBD,14,
Paweł Durecki,M,Wraps,Open,,,37,100,95.3,200,-215,-225,200,170,180,190,190,200,215,225,225,615,SBD,15,
Danylo Talash,M,Wraps,Open,,,17,100,98.1,195,207.5,215,215,140,145,150,150,215,235,250,250,615,SBD,16,
Adrian Pańczyk,M,Wraps,Open,,,26,100,98.8,-240,-240,255,255,120,127.5,-135,127.5,220,227.5,232.5,232.5,615,SBD,17,Wola Mocy
Mateusz Surowiec,M,Wraps,Open,,,20,100,95.2,195,205,215,215,137.5,-145,-145,137.5,240,260,-265,260,612.5,SBD,18,NOMERCY POWERLIFTING
Patryk Powałowski,M,Wraps,Open,,,25,100,96.5,-205,205,215,215,130,135,-140,135,230,240,250,250,600,SBD,19,
Przemysław Więckowski,M,Wraps,Open,,,40,100,97.9,230,-240,-240,230,-155,155,-165,155,200,212.5,-225,212.5,597.5,SBD,20,Husarz Team
Michał Gajlewicz,M,Wraps,Open,,,30,100,90.3,190,200,-210,200,120,125,-130,125,225,240,255,255,580,SBD,21,Polish Barbells
Jakub Pawłowski,M,Wraps,Open,,,30,100,97.6,190,200,205,205,105,112.5,117.5,117.5,235,255,-270,255,577.5,SBD,22,Polish Barbells
Aleksy Pachura,M,Wraps,Open,,,24,100,94.3,180,195,205,205,115,122.5,-127.5,122.5,-230,245,-260,245,572.5,SBD,23,Husarz Team
Emilian Śpiołek,M,Wraps,Open,,,25,100,99.6,180,195,-200,195,125,130,-135,130,215,225,235,235,560,SBD,24,Husarz Team
Patryk Kaczmarczyk,M,Wraps,Open,,,29,100,95.4,210,-217.5,-220,210,120,127.5,-135,127.5,205,220,-230,220,557.5,SBD,25,Garage Barbell Club
Adam Świdojć,M,Wraps,Open,,,32,100,97,187.5,195,200,200,117.5,125,-130,125,210,225,230,230,555,SBD,26,Garage Barbell Club
Igor Kubicki,M,Wraps,Open,,,16,100,98.5,180,195,200,200,130,-140,-140,130,200,215,-220,215,545,SBD,27,
Damian Matuszczak,M,Wraps,Open,,,31,100,98,190,200,-210,200,127.5,-132.5,-132.5,127.5,200,-220,-220,200,527.5,SBD,28,Stronghold Gym
Jakub Bąkiewicz,M,Wraps,Open,,,21,100,92,185,195,,195,120,-122.5,-122.5,120,185,192.5,200,200,515,SBD,29,Pogoń Wschowa
Eryk Buciuto,M,Wraps,Open,,,26,100,93.3,170,185,200,200,115,122.5,-127.5,122.5,170,185,-200,185,507.5,SBD,30,
Tomasz Grabara,M,Wraps,Open,,,33,100,95.8,150,160,-170,160,107.5,112.5,-115,112.5,220,-232.5,232.5,232.5,505,SBD,31,NOMERCY POWERLIFTING
Filip Jurczok,M,Wraps,Open,,,28,100,92.2,-185,185,200,200,85,90,-95,90,185,200,210,210,500,SBD,32,Polish Barbells
Mateusz Żebrowski,M,Wraps,Open,,,22,100,97,175,190,-200,190,107.5,115,-120,115,190,-205,-205,190,495,SBD,33,PowerliftingBears TEAM
Paweł Abramowicz,M,Wraps,Open,,,18,100,98.2,160,167.5,-172.5,167.5,80,-85,85,85,160,170,-180,170,422.5,SBD,34,
Kacper Szymaniak,M,Wraps,Open,,,23,100,96.9,-220,227.5,-235,227.5,-130,-135,-135,,,,,,,SBD,DQ,Power&Muscle Centrum Sportów Siłowych
Oskar Bar,M,Wraps,Open,,,28,110,107.4,350,370,-377.5,370,200,-205,,200,300,-315,-315,300,870,SBD,1,Podsztanga.pl
Damian Chudy,M,Wraps,Open,,,23,110,108,300,320,330,330,180,190,-195,190,280,290,-300,290,810,SBD,2,Metro-Flex Wrocław
Mateusz Olczyk,M,Wraps,Open,,,25,110,105.7,300,-315,315,315,170,180,185,185,280,300,-310,300,800,SBD,3,Potwory Tybory
Damian Głuchowski,M,Wraps,Open,,,29,110,102.7,270,300,-310,300,190,200,-205,200,270,290,-300,290,790,SBD,4,Potwory Tybory
Wojciech Celner,M,Wraps,Open,,,25,110,107.8,310,325,-332.5,325,170,-180,180,180,270,280,-295,280,785,SBD,5,Podsztanga.pl
Rafał Dominiak,M,Wraps,Open,,,31,110,109,260,275,290,290,180,190,-200,190,290,-310,,290,770,SBD,6,
Tomasz Kolbusz,M,Wraps,Open,,,24,110,102.7,240,250,260,260,160,167.5,170,170,290,305,315,315,745,SBD,7,PowerliftingBears TEAM
Artur Ziółkowski,M,Wraps,Open,,,26,110,105,275,-290,290,290,145,152.5,157.5,157.5,260,275,-282.5,275,722.5,SBD,8,Potwory Tybory
Hubert Woźniak,M,Wraps,Open,,,24,110,109.5,285,300,-310,300,145,152.5,-157.5,152.5,260,-270,-270,260,712.5,SBD,9,Schabownia Team
Adrian Masny,M,Wraps,Open,,,27,110,108.1,260,-270,-270,260,160,170,-172.5,170,270,280,-300,280,710,SBD,10,
Dawid Górzyński,M,Wraps,Open,,,35,110,108.2,230,240,250,250,180,185,190,190,250,260,270,270,710,SBD,11,
Marcin Błaszczyk,M,Wraps,Open,,,26,110,104.9,240,255,-275,255,162.5,-170,-170,162.5,270,-290,-290,270,687.5,SBD,12,PowerliftingBears TEAM
Jan Szopa,M,Wraps,Open,,,20,110,110,235,245,252.5,252.5,152.5,157.5,-162.5,157.5,265,277.5,-290,277.5,687.5,SBD,13,KS Outlaw Barbell Gdynia
Szymon Bielucy,M,Wraps,Open,,,41,110,105.9,230,250,-270,250,155,165,-175,165,-270,-270,270,270,685,SBD,14,
Kamil Wyrwich,M,Wraps,Open,,,21,110,109.9,250,-265,-265,250,145,155,160,160,270,-280,-280,270,680,SBD,15,
Grzegorz Bala,M,Wraps,Open,,,22,110,107.5,250,260,-265,260,160,-165,,160,240,250,-260,250,670,SBD,16,Husarz Team
Filip Bednarski,M,Wraps,Open,,,23,110,105.4,215,230,245,245,147.5,157.5,165,165,250,-265,-270,250,660,SBD,17,PowerliftingBears TEAM / Straż Pożarna
Paweł Chojęta,M,Wraps,Open,,,27,110,109.9,225,-235,240,240,130,135,-140,135,270,280,-290,280,655,SBD,18,Husarz Team
Bartłomiej Miziniak,M,Wraps,Open,,,24,110,107.2,225,240,-250,240,130,140,-150,140,250,265,-275,265,645,SBD,19,Polish Barbells
Przemysław Siwek,M,Wraps,Open,,,39,110,106.5,230,-240,-240,230,145,150,-152.5,150,240,250,-260,250,630,SBD,20,Husarz Team
Maciej Fień,M,Wraps,Open,,,29,110,107.6,245,-260,260,260,100,110,-120,110,230,245,-255,245,615,SBD,21,Mrowisko Powerlifting Team
Bartłomiej Muda,M,Wraps,Open,,,23,110,109.9,225,240,-250,240,135,140,-145,140,220,235,-245,235,615,SBD,22,Polish Barbells
Miłosz Karyś,M,Wraps,Open,,,23,110,103.8,-190,190,200,200,140,150,-152.5,150,240,250,262.5,262.5,612.5,SBD,23,
Michał Zackiewicz,M,Wraps,Open,,,26,110,103.4,200,225,242.5,242.5,130,140,-152.5,140,190,200,210,210,592.5,SBD,24,
Bartlomiej Karczyński,M,Wraps,Open,,,19,110,107.1,210,-220,-235,210,115,125,-130,125,210,225,240,240,575,SBD,25,Daryl Team
Bartosz Łagowski,M,Wraps,Open,,,29,110,103.2,150,160,-180,160,140,150,162.5,162.5,220,230,240,240,562.5,SBD,26,
Mateusz Drzazga,M,Wraps,Open,,,23,110,108.6,190,-200,-200,190,125,-132.5,135,135,210,220,230,230,555,SBD,27,Power&Muscle Centrum Sportów Siłowych
Igor Kapiczyński,M,Wraps,Open,,,19,110,109.6,180,190,200,200,105,110,-115,110,215,225,-235,225,535,SBD,28,Potwory Tybory
Wodecki Artur,M,Wraps,Open,,,31,110,108.9,190,200,-205,200,107.5,112.5,-120,112.5,205,215,220,220,532.5,SBD,29,Garage Barbell Club
Spałek Dominik,M,Wraps,Open,,,23,110,108,152.5,-160,160,160,132.5,140,145,145,200,215,225,225,530,SBD,30,PowerliftingBears TEAM
Józef Sokołowski,M,Wraps,Open,,,67,110,106.9,240,-260,-260,240,100,110,,110,150,160,,160,510,SBD,31,Mendelejew Team
Patryk Mróz,M,Wraps,Open,,,19,110,106.6,180,-190,-190,180,90,95,-100,95,200,215,220,220,495,SBD,32,Wola Mocy
Rafał Banachowicz,M,Wraps,Open,,,31,110,103,210,220,-230,220,125,132.5,-140,132.5,-140,140,,140,492.5,SBD,33,Ekipa Miami
Dawid Szajek,M,Wraps,Open,,,21,110,106.2,240,-255,,240,180,187.5,190,190,,,,,,SBD,DQ,Lujpower Team
Artur Lisowski,M,Wraps,Open,,,28,125,121.1,-355,-355,355,355,215,-225,225,225,320,335,,335,915,SBD,1,Potwory Tybory
Adam Woźny,M,Wraps,Open,,,21,125,110.1,-340,340,-350,340,195,202.5,-205,202.5,290,300,-305,300,842.5,SBD,2,Podsztanga.pl
Daniel Spodzieja,M,Wraps,Open,,,27,125,123.7,285,300,-307.5,300,170,-180,180,180,285,300,310,310,790,SBD,3,Podsztanga.pl
Dawid Dereń,M,Wraps,Open,,,23,125,110.3,290,305,315,315,145,-152.5,155,155,265,280,300,300,770,SBD,4,Podsztanga.pl
Dawid Cesarz,M,Wraps,Open,,,19,125,116.9,280,295,310,310,175,185,-190,185,250,265,-270,265,760,SBD,5,Mendelejew Team
Wiktor Michalski,M,Wraps,Open,,,22,125,123.2,300,320,,320,150,160,-167.5,160,270,280,,280,760,SBD,6,Potwory Tybory
Miłosz Materek,M,Wraps,Open,,,31,125,116.8,290,297.5,-302.5,297.5,155,165,170,170,275,285,290,290,757.5,SBD,7,Garage Barbell Club
Gracjan Gaducewicz,M,Wraps,Open,,,26,125,123.7,280,290,300,300,187.5,192.5,,192.5,240,262.5,,262.5,755,SBD,8,
Przemysław Rybacki,M,Wraps,Open,,,37,125,111.2,240,260,-275,260,170,180,-190,180,270,285,-290,285,725,SBD,9,Metro Flex Wrocław / Służba Więzienna
Mateusz Raj,M,Wraps,Open,,,20,125,111.4,265,280,-290,280,-165,175,-182.5,175,240,255,-272.5,255,710,SBD,10,
Mariusz Cichocki,M,Wraps,Open,,,45,125,118.1,-210,-230,230,230,180,-190,190,190,270,285,-292.5,285,705,SBD,11,
Sebastian Mitoraj,M,Wraps,Open,,,25,125,119.9,-245,260,-275,260,140,145,152.5,152.5,250,-265,265,265,677.5,SBD,12,PowerliftingBears TEAM
Krystian Tatara,M,Wraps,Open,,,30,125,118.1,210,225,240,240,145,150,155,155,235,250,-260,250,645,SBD,13,PowerliftingBears TEAM
Przemysław Chelman,M,Wraps,Open,,,43,125,119.9,-220,230,240,240,160,170,-175,170,200,210,,210,620,SBD,14,Wola Mocy
Damian Kazimierak,M,Wraps,Open,,,23,125,116.4,190,205,-215,205,132.5,137.5,-140,137.5,200,220,-230,220,562.5,SBD,15,
Sławomir Grzona,M,Wraps,Open,,,34,140,127.2,320,335,-345,335,180,190,200,200,-320,320,337.5,337.5,872.5,SBD,1,Good Lift Grudziądz
Patryk Łazor,M,Wraps,Open,,,29,140,134.1,-305,305,320,320,195,205,210,210,300,327.5,,327.5,857.5,SBD,2,Mendelejew Team
Jakub Dzik,M,Wraps,Open,,,23,140,131.6,270,285,300,300,180,185,-190,185,295,305,-315,305,790,SBD,3,PowerliftingBears TEAM
Konrad Juszkiewicz,M,Wraps,Open,,,30,140,138.8,-215,215,225,225,117.5,125,-130,125,190,205,-215,205,555,SBD,4,Polish Barbells
Michał Pacholczak,M,Wraps,Open,,,31,140,125.1,275,290,-300,290,190,202.5,-210,202.5,-285,-285,-285,,,SBD,DQ,
Sławomir Jankowski,M,Wraps,Open,,,42,140+,159.6,250,270,280,280,160,175,180,180,275,300,-325,300,760,SBD,1,Opolski Power Team
Łukasz Klugiewicz,M,Wraps,Open,,,28,140+,141.6,-390,-395,-395,,,,,,,,,,,SBD,DQ,Potwory Tybory
Kacper Bąkiewicz,M,Wraps,T13-15,,,15,90,89.1,-120,120,130,130,65,70,-72.5,70,130,140,-150,140,340,SBD,1,Pogoń Wschowa
Filip Kaczmarzewski,M,Wraps,T16-17,,,17,75,74.5,140,145,-150,145,90,92.5,,92.5,190,-205,210,210,447.5,SBD,1,Pogoń Wschowa
Adrian Medyński,M,Wraps,T16-17,,,17,75,72.1,140,150,155,155,90,95,-97.5,95,150,160,180,180,430,SBD,2,
Kacper Bednarowski,M,Wraps,T16-17,,,16,75,74.9,135,145,150,150,75,82.5,-85,82.5,165,175,-182.5,175,407.5,SBD,3,NOMERCY POWERLIFTING
Jacek Giernalczyk,M,Wraps,T16-17,,,17,75,70.2,-120,120,-130,120,55,60,-70,60,140,147.5,155,155,335,SBD,4,Daryl Team
Dawid Bieńko,M,Wraps,T16-17,,,17,82.5,79.2,160,180,190,190,117.5,127.5,132.5,132.5,170,190,200,200,522.5,SBD,1,
Dawid Chmielarz,M,Wraps,T16-17,,,17,90,87.8,180,190,-200,190,120,125,-130,125,215,225,235,235,550,SBD,1,
Gracjan Brzeziński,M,Wraps,T16-17,,,17,90,87.1,160,170,-180,170,80,90,-97.5,90,200,220,-230,220,480,SBD,2,Farma Lifterów Wojny
Marek Jasiński,M,Wraps,T16-17,,,17,90,87.8,-165,165,-170,165,107.5,-110,-115,107.5,175,182.5,190,190,462.5,SBD,3,Mendelejew Team
Maciej Ciżowski,M,Wraps,T16-17,,,17,90,87.8,-135,135,142.5,142.5,90,95,-100,95,147.5,155,162.5,162.5,400,SBD,4,PowerliftingBears TEAM
Danylo Talash,M,Wraps,T16-17,,,17,100,98.1,195,207.5,215,215,140,145,150,150,215,235,250,250,615,SBD,1,
Igor Kubicki,M,Wraps,T16-17,,,16,100,98.5,180,195,200,200,130,-140,-140,130,200,215,-220,215,545,SBD,2,
Danylo Talash,M,Wraps,T16-17,,,17,100,98.1,195,207.5,215,215,140,145,150,150,215,235,250,250,615,SBD,1,
Dawid Bieńko,M,Wraps,T16-17,,,17,82.5,79.2,160,180,190,190,117.5,127.5,132.5,132.5,170,190,200,200,522.5,SBD,2,
Dawid Chmielarz,M,Wraps,T16-17,,,17,90,87.8,180,190,-200,190,120,125,-130,125,215,225,235,235,550,SBD,3,
Igor Kubicki,M,Wraps,T16-17,,,16,100,98.5,180,195,200,200,130,-140,-140,130,200,215,-220,215,545,SBD,4,
Filip Kaczmarzewski,M,Wraps,T16-17,,,17,75,74.5,140,145,-150,145,90,92.5,,92.5,190,-205,210,210,447.5,SBD,5,Pogoń Wschowa
Adrian Medyński,M,Wraps,T16-17,,,17,75,72.1,140,150,155,155,90,95,-97.5,95,150,160,180,180,430,SBD,6,
Gracjan Brzeziński,M,Wraps,T16-17,,,17,90,87.1,160,170,-180,170,80,90,-97.5,90,200,220,-230,220,480,SBD,7,Farma Lifterów Wojny
Kacper Bednarowski,M,Wraps,T16-17,,,16,75,74.9,135,145,150,150,75,82.5,-85,82.5,165,175,-182.5,175,407.5,SBD,8,NOMERCY POWERLIFTING
Marek Jasiński,M,Wraps,T16-17,,,17,90,87.8,-165,165,-170,165,107.5,-110,-115,107.5,175,182.5,190,190,462.5,SBD,9,Mendelejew Team
Maciej Ciżowski,M,Wraps,T16-17,,,17,90,87.8,-135,135,142.5,142.5,90,95,-100,95,147.5,155,162.5,162.5,400,SBD,10,PowerliftingBears TEAM
Jacek Giernalczyk,M,Wraps,T16-17,,,17,75,70.2,-120,120,-130,120,55,60,-70,60,140,147.5,155,155,335,SBD,11,Daryl Team
Jakub Makosz,M,Wraps,T18-19,,,19,75,72.7,180,190,-200,190,120,125,-130,125,220,230,-240,230,545,SBD,1,Mendelejew Team
Marcel Marcinek,M,Wraps,T18-19,,,18,75,74.5,180,190,-200,190,100,105,-107.5,105,-220,220,-240,220,515,SBD,2,
Kamil Osumek,M,Wraps,T18-19,,,19,75,70,167.5,180,-190,180,77.5,85,90,90,195,210,-215,210,480,SBD,3,Potwory Tybory
Kamil Łoziński,M,Wraps,T18-19,,,19,75,73.5,150,-160,-165,150,102.5,107.5,-110,107.5,200,-207.5,207.5,207.5,465,SBD,4,
Vladyslav Nefelt,M,Wraps,T18-19,,,18,75,72.1,-175,-175,-175,,,,,,,,,,,SBD,DQ,
Jakub Kopońka,M,Wraps,T18-19,,,19,82.5,78.6,205,-215,-215,205,115,-125,-125,115,210,220,-225,220,540,SBD,1,
Karol Koenig,M,Wraps,T18-19,,,18,82.5,81.8,152.5,-162.5,-162.5,152.5,87.5,92.5,-95,92.5,210,-222.5,225,225,470,SBD,2,
Rafael Alfaro Alvarado,M,Wraps,T18-19,,,19,82.5,81.6,190,-200,-200,190,-125,-130,-130,,,,,,,SBD,DQ,Potwory Tybory
Jakub Tabor,M,Wraps,T18-19,,,18,90,87.9,240,255,265,265,120,127.5,-130,127.5,240,255,-260,255,647.5,SBD,1,PowerliftingBears TEAM
Radosław Paździerski,M,Wraps,T18-19,,,19,90,89.4,205,215,-220,215,145,150,155,155,200,220,230,230,600,SBD,2,Potwory Tybory
Mikołaj Wawrzykowski,M,Wraps,T18-19,,,18,90,88.3,180,200,215,215,120,125,-130,125,-210,220,-235,220,560,SBD,3,
Marcin Matusiak,M,Wraps,T18-19,,,18,90,84.5,190,,,190,132.5,-140,-147.5,132.5,170,182.5,192.5,192.5,515,SBD,4,
Maciej Trzonkowski,M,Wraps,T18-19,,,19,90,87,-172.5,172.5,-182.5,172.5,110,117.5,-122.5,117.5,230,-242.5,-250,230,520,SBD,5,Armia Trzona
Nikodem Hapka,M,Wraps,T18-19,,,19,90,84,150,160,165,165,110,117.5,-120,117.5,205,220,-230,220,502.5,SBD,6,PowerliftingBears TEAM
Artur Kozłowski,M,Wraps,T18-19,,,19,100,98,225,235,-245,235,135,142.5,-145,142.5,250,265,277.5,277.5,655,SBD,1,Kuźnia Formy Siedlce
Paweł Abramowicz,M,Wraps,T18-19,,,18,100,98.2,160,167.5,-172.5,167.5,80,-85,85,85,160,170,-180,170,422.5,SBD,2,
Bartlomiej Karczyński,M,Wraps,T18-19,,,19,110,107.1,210,-220,-235,210,115,125,-130,125,210,225,240,240,575,SBD,1,Daryl Team
Igor Kapiczyński,M,Wraps,T18-19,,,19,110,109.6,180,190,200,200,105,110,-115,110,215,225,-235,225,535,SBD,2,Potwory Tybory
Patryk Mróz,M,Wraps,T18-19,,,19,110,106.6,180,-190,-190,180,90,95,-100,95,200,215,220,220,495,SBD,3,Wola Mocy
Dawid Cesarz,M,Wraps,T18-19,,,19,125,116.9,280,295,310,310,175,185,-190,185,250,265,-270,265,760,SBD,1,Mendelejew Team
Dawid Cesarz,M,Wraps,T18-19,,,19,125,116.9,280,295,310,310,175,185,-190,185,250,265,-270,265,760,SBD,1,Mendelejew Team
Jakub Tabor,M,Wraps,T18-19,,,18,90,87.9,240,255,265,265,120,127.5,-130,127.5,240,255,-260,255,647.5,SBD,2,PowerliftingBears TEAM
Jakub Makosz,M,Wraps,T18-19,,,19,75,72.7,180,190,-200,190,120,125,-130,125,220,230,-240,230,545,SBD,3,Mendelejew Team
Artur Kozłowski,M,Wraps,T18-19,,,19,100,98,225,235,-245,235,135,142.5,-145,142.5,250,265,277.5,277.5,655,SBD,4,Kuźnia Formy Siedlce
Radosław Paździerski,M,Wraps,T18-19,,,19,90,89.4,205,215,-220,215,145,150,155,155,200,220,230,230,600,SBD,5,Potwory Tybory
Marcel Marcinek,M,Wraps,T18-19,,,18,75,74.5,180,190,-200,190,100,105,-107.5,105,-220,220,-240,220,515,SBD,6,
Jakub Kopońka,M,Wraps,T18-19,,,19,82.5,78.6,205,-215,-215,205,115,-125,-125,115,210,220,-225,220,540,SBD,7,
Mikołaj Wawrzykowski,M,Wraps,T18-19,,,18,90,88.3,180,200,215,215,120,125,-130,125,-210,220,-235,220,560,SBD,8,
Kamil Osumek,M,Wraps,T18-19,,,19,75,70,167.5,180,-190,180,77.5,85,90,90,195,210,-215,210,480,SBD,9,Potwory Tybory
Marcin Matusiak,M,Wraps,T18-19,,,18,90,84.5,190,,,190,132.5,-140,-147.5,132.5,170,182.5,192.5,192.5,515,SBD,10,
Bartlomiej Karczyński,M,Wraps,T18-19,,,19,110,107.1,210,-220,-235,210,115,125,-130,125,210,225,240,240,575,SBD,11,Daryl Team
Kamil Łoziński,M,Wraps,T18-19,,,19,75,73.5,150,-160,-165,150,102.5,107.5,-110,107.5,200,-207.5,207.5,207.5,465,SBD,12,
Maciej Trzonkowski,M,Wraps,T18-19,,,19,90,87,-172.5,172.5,-182.5,172.5,110,117.5,-122.5,117.5,230,-242.5,-250,230,520,SBD,13,Armia Trzona
Nikodem Hapka,M,Wraps,T18-19,,,19,90,84,150,160,165,165,110,117.5,-120,117.5,205,220,-230,220,502.5,SBD,14,PowerliftingBears TEAM
Karol Koenig,M,Wraps,T18-19,,,18,82.5,81.8,152.5,-162.5,-162.5,152.5,87.5,92.5,-95,92.5,210,-222.5,225,225,470,SBD,15,
Igor Kapiczyński,M,Wraps,T18-19,,,19,110,109.6,180,190,200,200,105,110,-115,110,215,225,-235,225,535,SBD,16,Potwory Tybory
Patryk Mróz,M,Wraps,T18-19,,,19,110,106.6,180,-190,-190,180,90,95,-100,95,200,215,220,220,495,SBD,17,Wola Mocy
Paweł Abramowicz,M,Wraps,T18-19,,,18,100,98.2,160,167.5,-172.5,167.5,80,-85,85,85,160,170,-180,170,422.5,SBD,18,
Vladyslav Nefelt,M,Wraps,T18-19,,,18,75,72.1,-175,-175,-175,,-100,-105,,,185,-207.5,-212.5,185,,SBD,DQ,
Rafael Alfaro Alvarado,M,Wraps,T18-19,,,19,82.5,81.6,190,-200,-200,190,-125,-130,-130,,,,,,,SBD,DQ,Potwory Tybory
Patryk Witczak,M,Wraps,J20-23,,,23,75,74.3,190,-200,-200,190,120,130,140,140,180,200,220,220,550,SBD,1,
Jakub Waligórski,M,Wraps,J20-23,,,21,75,69.8,150,157.5,-162.5,157.5,105,110,-115,110,190,200,-205,200,467.5,SBD,2,PowerliftingBears TEAM
Filip Stelmach,M,Wraps,J20-23,,,22,75,73.7,-220,-232.5,-232.5,,,,,,,,,,,SBD,DQ,Silny Team
Krystian Kluczyński,M,Wraps,J20-23,,,22,82.5,78.3,230,245,-255,245,135,142.5,-145,142.5,237.5,252.5,-262.5,252.5,640,SBD,1,NOMERCY POWERLIFTING
Łukasz Babecki,M,Wraps,J20-23,,,23,82.5,82,220,230,-237.5,230,135,-140,140,140,255,270,-280,270,640,SBD,2,NOMERCY POWERLIFTING
Kamil Ciszewski,M,Wraps,J20-23,,,20,82.5,80.7,230,-250,-250,230,145,152.5,-155,152.5,205,215,225,225,607.5,SBD,3,Potwory Tybory
Szymon Laskowski,M,Wraps,J20-23,,,20,82.5,81.3,210,220,-230,220,112.5,117.5,122.5,122.5,215,225,-232.5,225,567.5,SBD,4,Good Lift Grudziądz
Jakub Laska,M,Wraps,J20-23,,,20,82.5,79.4,150,165,180,180,110,120,125,125,210,220,225,225,530,SBD,5,Daryl Team
Konrad Tarka,M,Wraps,J20-23,,,20,82.5,77.3,162.5,172.5,-180,172.5,87.5,92.5,-97.5,92.5,180,190,-200,190,455,SBD,6,Husarz Team
Mariusz Salabura,M,Wraps,J20-23,,,23,82.5,76.4,135,147.5,-155,147.5,77.5,85,90,90,152.5,165,175,175,412.5,SBD,7,NOMERCY POWERLIFTING
Kacper Wawrzyniak,M,Wraps,J20-23,,,21,90,89.7,260,270,-280,270,130,137.5,140,140,270,285,-300,285,695,SBD,1,Wola Mocy
Dominik Kułaga,M,Wraps,J20-23,,,23,90,87.9,272.5,285,-300,285,135,-140,140,140,265,-275,-275,265,690,SBD,2,NOMERCY POWERLIFTING
Paweł Just,M,Wraps,J20-23,,,23,90,89.5,280,-300,-300,280,150,-160,-160,150,-225,-232.5,232.5,232.5,662.5,SBD,3,KS Outlaw Barbell Gdynia
Kamil Kropidłowski,M,Wraps,J20-23,,,22,90,83.7,220,230,-240,230,127.5,-135,135,135,255,265,-272.5,265,630,SBD,4,Husarz Team
Dawid Ożga,M,Wraps,J20-23,,,23,90,88.9,230,-250,255,255,132.5,140,-145,140,230,247.5,257.5,257.5,652.5,SBD,5,The Lifters
Kacper Grabowski,M,Wraps,J20-23,,,23,90,83.2,217.5,227.5,-240,227.5,155,160,165.5,165.5,210,225,-232.5,225,618,SBD,6,KS Outlaw Barbell Gdynia/ Marynarka Wojenna
Michał Jarek,M,Wraps,J20-23,,,21,90,89.5,215,225,230,230,110,-120,-120,110,255,275,-285,275,615,SBD,7,Garage Barbell Club
Adrian Janecki,M,Wraps,J20-23,,,22,90,89.2,230,-240,,230,130,137.5,-140,137.5,230,-240,-240,230,597.5,SBD,8,Schabownia Team
Krzysztof Klimentowski,M,Wraps,J20-23,,,22,90,87.3,210,220,225,225,115,-120,-120,115,225,240,-250,240,580,SBD,9,Polish Barbells
Maciej Możdżeń,M,Wraps,J20-23,,,21,90,88.5,180,195,-205,195,160,170,175,175,190,200,207.5,207.5,577.5,SBD,10,Team Wrocław
Bartosz Buława,M,Wraps,J20-23,,,20,90,85.7,190,200,-210,200,97.5,102.5,105,105,200,210,220,220,525,SBD,11,WagonStrenght
Fryderyk Buciuto,M,Wraps,J20-23,,,21,90,85.4,160,175,-182.5,175,110,-120,-122.5,110,180,200,-210,200,485,SBD,12,
Bartosz Szczepankiewicz,M,Wraps,J20-23,,,23,100,99.6,270,281,285,285,165,-175,175,175,280,-297.5,-297.5,280,740,SBD,1,Wola mocy
Michał Czyrek,M,Wraps,J20-23,,,21,100,99.2,260,-270,-270,260,150,-155,-155,150,275,290,-300,290,700,SBD,2,PowerliftingBears TEAM
Arkadiusz Bzdak,M,Wraps,J20-23,,,21,100,96.6,260,-275,-275,260,160,-170,-170,160,260,270,-275,270,690,SBD,3,Szyman Team
Dawid Holeksa,M,Wraps,J20-23,,,20,100,95.6,225,240,-255,240,140,145,147.5,147.5,240,250,-260,250,637.5,SBD,4,WagonStrenght
Mateusz Surowiec,M,Wraps,J20-23,,,20,100,95.2,195,205,215,215,137.5,-145,-145,137.5,240,260,-265,260,612.5,SBD,5,NOMERCY POWERLIFTING
Jakub Bąkiewicz,M,Wraps,J20-23,,,21,100,92,185,195,,195,120,-122.5,-122.5,120,185,192.5,200,200,515,SBD,6,Pogoń Wschowa
Mateusz Żebrowski,M,Wraps,J20-23,,,22,100,97,175,190,-200,190,107.5,115,-120,115,190,-205,-205,190,495,SBD,7,PowerliftingBears TEAM
Kacper Szymaniak,M,Wraps,J20-23,,,23,100,96.9,-220,227.5,-235,227.5,-130,-135,-135,,,,,,,SBD,DQ,Power&Muscle Centrum Sportów Siłowych
Damian Chudy,M,Wraps,J20-23,,,23,110,108,300,320,330,330,180,190,-195,190,280,290,-300,290,810,SBD,1,Metro-Flex Wrocław
Jan Szopa,M,Wraps,J20-23,,,20,110,110,235,245,252.5,252.5,152.5,157.5,-162.5,157.5,265,277.5,-290,277.5,687.5,SBD,2,KS Outlaw Barbell Gdynia
Kamil Wyrwich,M,Wraps,J20-23,,,21,110,109.9,250,-265,-265,250,145,155,160,160,270,-280,-280,270,680,SBD,3,
Grzegorz Bala,M,Wraps,J20-23,,,22,110,107.5,250,260,-265,260,160,-165,,160,240,250,-260,250,670,SBD,4,Husarz Team
Filip Bednarski,M,Wraps,J20-23,,,23,110,105.4,215,230,245,245,147.5,157.5,165,165,250,-265,-270,250,660,SBD,5,PowerliftingBears TEAM / Straż Pożarna
Miłosz Karyś,M,Wraps,J20-23,,,23,110,103.8,-190,190,200,200,140,150,-152.5,150,240,250,262.5,262.5,612.5,SBD,6,
Bartłomiej Muda,M,Wraps,J20-23,,,23,110,109.9,225,240,-250,240,135,140,-145,140,220,235,-245,235,615,SBD,7,Polish Barbells
Mateusz Drzazga,M,Wraps,J20-23,,,23,110,108.6,190,-200,-200,190,125,-132.5,135,135,210,220,230,230,555,SBD,8,Power&Muscle Centrum Sportów Siłowych
Dominik Spałek,M,Wraps,J20-23,,,23,110,108,152.5,-160,160,160,132.5,140,145,145,200,215,225,225,530,SBD,9,PowerliftingBears TEAM
Dawid Szajek,M,Wraps,J20-23,,,21,110,106.2,240,-255,,240,180,187.5,190,190,,,,,,SBD,DQ,Lujpower Team
Adam Woźny,M,Wraps,J20-23,,,21,125,110.1,-340,340,-350,340,195,202.5,-205,202.5,290,300,-305,300,842.5,SBD,1,Podsztanga.pl
Dawid Dereń,M,Wraps,J20-23,,,23,125,110.3,290,305,315,315,145,-152.5,155,155,265,280,300,300,770,SBD,2,Podsztanga.pl
Wiktor Michalski,M,Wraps,J20-23,,,22,125,123.2,300,320,,320,150,160,-167.5,160,270,280,,280,760,SBD,3,Potwory Tybory
Mateusz Raj,M,Wraps,J20-23,,,20,125,111.4,265,280,-290,280,-165,175,-182.5,175,240,255,-272.5,255,710,SBD,4,
Damian Kazimierak,M,Wraps,J20-23,,,23,125,116.4,190,205,-215,205,132.5,137.5,-140,137.5,200,220,-230,220,562.5,SBD,5,
Jakub Dzik,M,Wraps,J20-23,,,23,140,131.6,270,285,300,300,180,185,-190,185,295,305,-315,305,790,SBD,1,PowerliftingBears TEAM
Adam Woźny,M,Wraps,J20-23,,,21,125,110.1,-340,340,-350,340,195,202.5,-205,202.5,290,300,-305,300,842.5,SBD,1,Podsztanga.pl
Damian Chudy,M,Wraps,J20-23,,,23,110,108,300,320,330,330,180,190,-195,190,280,290,-300,290,810,SBD,2,Metro-Flex Wrocław
Kacper Wawrzyniak,M,Wraps,J20-23,,,21,90,89.7,260,270,-280,270,130,137.5,140,140,270,285,-300,285,695,SBD,3,Wola Mocy
Dawid Dereń,M,Wraps,J20-23,,,23,125,110.3,290,305,315,315,145,-152.5,155,155,265,280,300,300,770,SBD,4,Podsztanga.pl
Krystian Kluczyński,M,Wraps,J20-23,,,22,82.5,78.3,230,245,-255,245,135,142.5,-145,142.5,237.5,252.5,-262.5,252.5,640,SBD,5,NOMERCY POWERLIFTING
Bartosz Szczepankiewicz,M,Wraps,J20-23,,,23,100,99.6,270,281,285,285,165,-175,175,175,280,-297.5,-297.5,280,740,SBD,6,Wola mocy
Dominik Kułaga,M,Wraps,J20-23,,,23,90,87.9,272.5,285,-300,285,135,-140,140,140,265,-275,-275,265,690,SBD,7,NOMERCY POWERLIFTING
Jakub Dzik,M,Wraps,J20-23,,,23,140,131.6,270,285,300,300,180,185,-190,185,295,305,-315,305,790,SBD,8,PowerliftingBears TEAM
Wiktor Michalski,M,Wraps,J20-23,,,22,125,123.2,300,320,,320,150,160,-167.5,160,270,280,,280,760,SBD,9,Potwory Tybory
Michał Czyrek,M,Wraps,J20-23,,,21,100,99.2,260,-270,-270,260,150,-155,-155,150,275,290,-300,290,700,SBD,10,PowerliftingBears TEAM
Arkadiusz Bzdak,M,Wraps,J20-23,,,21,100,96.6,260,-275,-275,260,160,-170,-170,160,260,270,-275,270,690,SBD,11,Szyman Team
Łukasz Babecki,M,Wraps,J20-23,,,23,82.5,82,220,230,-237.5,230,135,-140,140,140,255,270,-280,270,640,SBD,12,NOMERCY POWERLIFTING
Mateusz Raj,M,Wraps,J20-23,,,20,125,111.4,265,280,-290,280,-165,175,-182.5,175,240,255,-272.5,255,710,SBD,13,
Kamil Ciszewski,M,Wraps,J20-23,,,20,82.5,80.7,230,-250,-250,230,145,152.5,-155,152.5,205,215,225,225,607.5,SBD,14,Potwory Tybory
Paweł Just,M,Wraps,J20-23,,,23,90,89.5,280,-300,-300,280,150,-160,-160,150,-225,-232.5,232.5,232.5,662.5,SBD,15,KS Outlaw Barbell Gdynia
Kamil Kropidłowski,M,Wraps,J20-23,,,22,90,83.7,220,230,-240,230,127.5,-135,135,135,255,265,-272.5,265,630,SBD,16,Husarz Team
Dawid Ożga,M,Wraps,J20-23,,,23,90,88.9,230,-250,255,255,132.5,140,-145,140,230,247.5,257.5,257.5,652.5,SBD,17,The Lifters
Jan Szopa,M,Wraps,J20-23,,,20,110,110,235,245,252.5,252.5,152.5,157.5,-162.5,157.5,265,277.5,-290,277.5,687.5,SBD,18,KS Outlaw Barbell Gdynia
Kacper Grabowski,M,Wraps,J20-23,,,23,90,83.2,217.5,227.5,-240,227.5,155,160,165.5,165.5,210,225,-232.5,225,618,SBD,19,KS Outlaw Barbell Gdynia/ Marynarka Wojenna
Kamil Wyrwich,M,Wraps,J20-23,,,21,110,109.9,250,-265,-265,250,145,155,160,160,270,-280,-280,270,680,SBD,20,
Dawid Holeksa,M,Wraps,J20-23,,,20,100,95.6,225,240,-255,240,140,145,147.5,147.5,240,250,-260,250,637.5,SBD,21,WagonStrenght
Michał Jarek,M,Wraps,J20-23,,,21,90,89.5,215,225,230,230,110,-120,-120,110,255,275,-285,275,615,SBD,22,Garage Barbell Club
Grzegorz Bala,M,Wraps,J20-23,,,22,110,107.5,250,260,-265,260,160,-165,,160,240,250,-260,250,670,SBD,23,Husarz Team
Patryk Witczak,M,Wraps,J20-23,,,23,75,74.3,190,-200,-200,190,120,130,140,140,180,200,220,220,550,SBD,24,
Szymon Laskowski,M,Wraps,J20-23,,,20,82.5,81.3,210,220,-230,220,112.5,117.5,122.5,122.5,215,225,-232.5,225,567.5,SBD,25,Good Lift Grudziądz
Filip Bednarski,M,Wraps,J20-23,,,23,110,105.4,215,230,245,245,147.5,157.5,165,165,250,-265,-270,250,660,SBD,26,PowerliftingBears TEAM / Straż Pożarna
Mateusz Surowiec,M,Wraps,J20-23,,,20,100,95.2,195,205,215,215,137.5,-145,-145,137.5,240,260,-265,260,612.5,SBD,27,NOMERCY POWERLIFTING
Adrian Janecki,M,Wraps,J20-23,,,22,90,89.2,230,-240,,230,130,137.5,-140,137.5,230,-240,-240,230,597.5,SBD,28,Schabownia Team
Krzysztof Klimentowski,M,Wraps,J20-23,,,22,90,87.3,210,220,225,225,115,-120,-120,115,225,240,-250,240,580,SBD,29,Polish Barbells
Maciej Możdżeń,M,Wraps,J20-23,,,21,90,88.5,180,195,-205,195,160,170,175,175,190,200,207.5,207.5,577.5,SBD,30,Team Wrocław
Jakub Laska,M,Wraps,J20-23,,,20,82.5,79.4,150,165,180,180,110,120,125,125,210,220,225,225,530,SBD,31,Daryl Team
Miłosz Karyś,M,Wraps,J20-23,,,23,110,103.8,-190,190,200,200,140,150,-152.5,150,240,250,262.5,262.5,612.5,SBD,32,
Jakub Waligórski,M,Wraps,J20-23,,,21,75,69.8,150,157.5,-162.5,157.5,105,110,-115,110,190,200,-205,200,467.5,SBD,33,PowerliftingBears TEAM
Bartłomiej Muda,M,Wraps,J20-23,,,23,110,109.9,225,240,-250,240,135,140,-145,140,220,235,-245,235,615,SBD,34,Polish Barbells
Bartosz Buława,M,Wraps,J20-23,,,20,90,85.7,190,200,-210,200,97.5,102.5,105,105,200,210,220,220,525,SBD,35,WagonStrenght
Jakub Bąkiewicz,M,Wraps,J20-23,,,21,100,92,185,195,,195,120,-122.5,-122.5,120,185,192.5,200,200,515,SBD,36,Pogoń Wschowa
Konrad Tarka,M,Wraps,J20-23,,,20,82.5,77.3,162.5,172.5,-180,172.5,87.5,92.5,-97.5,92.5,180,190,-200,190,455,SBD,37,Husarz Team
Mateusz Drzazga,M,Wraps,J20-23,,,23,110,108.6,190,-200,-200,190,125,-132.5,135,135,210,220,230,230,555,SBD,38,Power&Muscle Centrum Sportów Siłowych
Fryderyk Buciuto,M,Wraps,J20-23,,,21,90,85.4,160,175,-182.5,175,110,-120,-122.5,110,180,200,-210,200,485,SBD,39,
Damian Kazimierak,M,Wraps,J20-23,,,23,125,116.4,190,205,-215,205,132.5,137.5,-140,137.5,200,220,-230,220,562.5,SBD,40,
Dominik Spałek,M,Wraps,J20-23,,,23,110,108,152.5,-160,160,160,132.5,140,145,145,200,215,225,225,530,SBD,41,PowerliftingBears TEAM
Mateusz Żebrowski,M,Wraps,J20-23,,,22,100,97,175,190,-200,190,107.5,115,-120,115,190,-205,-205,190,495,SBD,42,PowerliftingBears TEAM
Mariusz Salabura,M,Wraps,J20-23,,,23,82.5,76.4,135,147.5,-155,147.5,77.5,85,90,90,152.5,165,175,175,412.5,SBD,43,NOMERCY POWERLIFTING
Dawid Szajek,M,Wraps,J20-23,,,21,110,106.2,240,-255,,240,180,187.5,190,190,,,,,,SBD,DQ,Lujpower Team
Kacper Szymaniak,M,Wraps,J20-23,,,23,100,96.9,-220,227.5,-235,227.5,-130,-135,-135,,,,,,,SBD,DQ,Power&Muscle Centrum Sportów Siłowych
Filip Stelmach,M,Wraps,J20-23,,,22,75,73.7,-220,-232.5,-232.5,,,,,,,,,,,SBD,DQ,Silny Team
Artur Lisowski,M,Wraps,S24-32,,,28,125,121.1,-355,-355,355,355,215,-225,225,225,320,335,,335,915,SBD,1,Potwory Tybory
Oskar Bar,M,Wraps,S24-32,,,28,110,107.4,350,370,-377.5,370,200,-205,,200,300,-315,-315,300,870,SBD,2,Podsztanga.pl
Tomasz Moniak,M,Wraps,S24-32,,,27,90,89,290,305,315,315,157.5,165,170,170,300,-315,315,315,800,SBD,3,Podsztanga.pl
Sławomir Sidorowicz,M,Wraps,S24-32,,,29,100,98.2,280,300,-310,300,180,190,-200,190,320,330,-340,330,820,SBD,4,LZS KS Olszanka Pogorzela SSS
Daniel Chaciński,M,Wraps,S24-32,,,26,82.5,80.5,235,250,265,265,190,200,-205,200,240,260,-270,260,725,SBD,5,Podsztanga.pl
Patryk Łazor,M,Wraps,S24-32,,,29,140,134.1,-305,305,320,320,195,205,210,210,300,327.5,,327.5,857.5,SBD,6,Mendelejew Team
Mateusz Olczyk,M,Wraps,S24-32,,,25,110,105.7,300,-315,315,315,170,180,185,185,280,300,-310,300,800,SBD,7,Potwory Tybory
Michał Marciniak,M,Wraps,S24-32,,,31,100,99.4,280,290,-300,290,180,-190,190,190,290,300,-322.5,300,780,SBD,8,Good Lift Grudziądz
Damian Głuchowski,M,Wraps,S24-32,,,29,110,102.7,270,300,-310,300,190,200,-205,200,270,290,-300,290,790,SBD,9,Potwory Tybory
Karol Opaliński,M,Wraps,S24-32,,,32,90,86.6,265,285,300,300,120,-130,135,135,265,280,-285,280,715,SBD,10,Potwory Tybory
Wojciech Celner,M,Wraps,S24-32,,,25,110,107.8,310,325,-332.5,325,170,-180,180,180,270,280,-295,280,785,SBD,11,Podsztanga.pl
Łukasz Kojder,M,Wraps,S24-32,,,29,100,100,245,255,-260,255,180,195,-202.5,195,280,295,310,310,760,SBD,12,
Mateusz Piórkowski,M,Wraps,S24-32,,,31,90,89.9,250,260,265,265,170,175,180,180,250,260,275,275,720,SBD,13,Wola Mocy
Patryk Chmura,M,Wraps,S24-32,,,26,90,88,270,290,300,300,150,160,-170,160,230,245,-260,245,705,SBD,14,Mendelejew Team
Oleksandr Trondiuk,M,Wraps,S24-32,,,26,75,74.5,225,-240,-240,225,115,120,125,125,262.5,275,280,280,630,SBD,15,
Sebastian Trybuś,M,Wraps,S24-32,,,26,90,90,240,-260,260,260,160,-165,,160,270,290,-302.5,290,710,SBD,16,Potwory Tybory
Rafał Dominiak,M,Wraps,S24-32,,,31,110,109,260,275,290,290,180,190,-200,190,290,-310,,290,770,SBD,17,
Daniel Spodzieja,M,Wraps,S24-32,,,27,125,123.7,285,300,-307.5,300,170,-180,180,180,285,300,310,310,790,SBD,18,Podsztanga.pl
Tomasz Kolbusz,M,Wraps,S24-32,,,24,110,102.7,240,250,260,260,160,167.5,170,170,290,305,315,315,745,SBD,19,PowerliftingBears TEAM
Miłosz Materek,M,Wraps,S24-32,,,31,125,116.8,290,297.5,-302.5,297.5,155,165,170,170,275,285,290,290,757.5,SBD,20,Garage Barbell Club
Bartosz Wulbach,M,Wraps,S24-32,,,30,100,99.6,280,-290,-290,280,155,160,-162.5,160,270,280,,280,720,SBD,21,Mendelejew Team
Dawid Raczek,M,Wraps,S24-32,,,31,90,87.4,230,-240,240,240,150,155,-160,155,265,275,,275,670,SBD,22,PowerliftingBears TEAM
Mateusz Marecki,M,Wraps,S24-32,,,25,75,70.2,202.5,207.5,-220,207.5,107.5,-112.5,115,115,220,240,252.5,252.5,575,SBD,23,
Mateusz Wójtowicz,M,Wraps,S24-32,,,28,75,74.9,200,210,215,215,135,-142.5,145,145,230,240,-245,240,600,SBD,24,18 Batalion Dowodzenia
Albert Mielczarek,M,Wraps,S24-32,,,24,90,88.2,240,250,,250,140,147.5,-152.5,147.5,250,-270,270,270,667.5,SBD,25,PowerliftingBears TEAM
Gracjan Gaducewicz,M,Wraps,S24-32,,,26,125,123.7,280,290,300,300,187.5,192.5,,192.5,240,262.5,,262.5,755,SBD,26,
Artur Ziółkowski,M,Wraps,S24-32,,,26,110,105,275,-290,290,290,145,152.5,157.5,157.5,260,275,-282.5,275,722.5,SBD,27,Potwory Tybory
Amadeusz Pytyński,M,Wraps,S24-32,,,30,100,97.9,240,252.5,-260,252.5,165,-170,-170,165,-260,270,282.5,282.5,700,SBD,28,Husarz Team
Krzysztof Kraśniewki,M,Wraps,S24-32,,,29,75,74.2,215,-225,225,225,135,140,145,145,220,-227.5,-227.5,220,590,SBD,29,NOMERCY POWERLIFTING
Adrian Jatczak,M,Wraps,S24-32,,,28,90,89.2,230,245,250,250,125,132.5,137.5,137.5,250,265,277.5,277.5,665,SBD,30,
Adrian Masny,M,Wraps,S24-32,,,27,110,108.1,260,-270,-270,260,160,170,-172.5,170,270,280,-300,280,710,SBD,31,
Hubert Woźniak,M,Wraps,S24-32,,,24,110,109.5,285,300,-310,300,145,152.5,-157.5,152.5,260,-270,-270,260,712.5,SBD,32,Schabownia Team
Piotr Stefaniuk,M,Wraps,S24-32,,,31,67.5,66,-155,160,-175,160,120,122.5,125,125,220,230,-235,230,515,SBD,33,Mendelejew Team
Marcin Błaszczyk,M,Wraps,S24-32,,,26,110,104.9,240,255,-275,255,162.5,-170,-170,162.5,270,-290,-290,270,687.5,SBD,34,PowerliftingBears TEAM
Tomasz Redloch,M,Wraps,S24-32,,,27,67.5,67.3,175,192.5,-200,192.5,95,105,110,110,200,212.5,217.5,217.5,520,SBD,35,Polish Barbells
Adam Chudaś,M,Wraps,S24-32,,,26,82.5,79.9,215,225,-235,225,110,115,-117.5,115,230,250,-260,250,590,SBD,36,Polish Barbells
Mariusz Stachowiak,M,Wraps,S24-32,,,24,100,92,-225,-225,225,225,157.5,162.5,-170,162.5,220,235,250,250,637.5,SBD,37,Akademia Marynarki Wojennej / Outlaw Barbell
Sebastian Mitoraj,M,Wraps,S24-32,,,25,125,119.9,-245,260,-275,260,140,145,152.5,152.5,250,-265,265,265,677.5,SBD,38,PowerliftingBears TEAM
Mateusz Babiak,M,Wraps,S24-32,,,29,90,89.2,200,210,-215,210,160,-170,-170,160,205,220,230,230,600,SBD,39,Metro-Flex Wrocław
Paweł Chojęta,M,Wraps,S24-32,,,27,110,109.9,225,-235,240,240,130,135,-140,135,270,280,-290,280,655,SBD,40,Husarz Team
Bartłomiej Miziniak,M,Wraps,S24-32,,,24,110,107.2,225,240,-250,240,130,140,-150,140,250,265,-275,265,645,SBD,41,Polish Barbells
Szymon Brzozowski,M,Wraps,S24-32,,,27,90,86.2,-215,215,230,230,110,115,117.5,117.5,225,235,-245,235,582.5,SBD,42,Good Lift Grudziądz
Olaf Susicki,M,Wraps,S24-32,,,24,90,89.7,-240,240,-260,240,125,135,140,140,195,210,-220,210,590,SBD,43,Potwory Tybory
Przemysław Kawczyński,M,Wraps,S24-32,,,28,82.5,81.7,190,-200,-205,190,120,127.5,-130,127.5,220,230,240,240,557.5,SBD,44,Mendelejew Team/Reprezentacja Polskiej Policji
Bartosz Kostuj,M,Wraps,S24-32,,,29,100,99.4,220,-235,-235,220,130,-135,135,135,250,265,-270,265,620,SBD,45,
Adrian Pańczyk,M,Wraps,S24-32,,,26,100,98.8,-240,-240,255,255,120,127.5,-135,127.5,220,227.5,232.5,232.5,615,SBD,46,Wola Mocy
Krystian Tatara,M,Wraps,S24-32,,,30,125,118.1,210,225,240,240,145,150,155,155,235,250,-260,250,645,SBD,47,PowerliftingBears TEAM
Patryk Powałowski,M,Wraps,S24-32,,,25,100,96.5,-205,205,215,215,130,135,-140,135,230,240,250,250,600,SBD,48,
Michał Gajlewicz,M,Wraps,S24-32,,,30,100,90.3,190,200,-210,200,120,125,-130,125,225,240,255,255,580,SBD,49,Polish Barbells
Jan Droń,M,Wraps,S24-32,,,27,82.5,81,190,200,210,210,125,-132.5,132.5,132.5,185,195,-202.5,195,537.5,SBD,50,Protip Team
Maciej Fień,M,Wraps,S24-32,,,29,110,107.6,245,-260,260,260,100,110,-120,110,230,245,-255,245,615,SBD,51,Mrowisko Powerlifting Team
Oskar Mazurek,M,Wraps,S24-32,,,25,82.5,81.1,195,-200,-200,195,120,122.5,125,125,195,202.5,210,210,530,SBD,52,Team Wrocław
Aleksy Pachura,M,Wraps,S24-32,,,24,100,94.3,180,195,205,205,115,122.5,-127.5,122.5,-230,245,-260,245,572.5,SBD,53,Husarz Team
Kamil Grzegorski,M,Wraps,S24-32,,,26,82.5,81.1,185,195,200,200,105,112.5,-122.5,112.5,200,-210,210,210,522.5,SBD,54,Ekipa Miami
Michał Zackiewicz,M,Wraps,S24-32,,,26,110,103.4,200,225,242.5,242.5,130,140,-152.5,140,190,200,210,210,592.5,SBD,55,
Jakub Pawłowski,M,Wraps,S24-32,,,30,100,97.6,190,200,205,205,105,112.5,117.5,117.5,235,255,-270,255,577.5,SBD,56,Polish Barbells
Bartłomiej Woryński,M,Wraps,S24-32,,,25,90,86.2,205,212.5,-220,212.5,100,107.5,-115,107.5,200,215,-230,215,535,SBD,57,Potwory Tybory
Krystian Mróz,M,Wraps,S24-32,,,24,75,73.5,140,152.5,157.5,157.5,127.5,135,-140,135,170,185,-195,185,477.5,SBD,58,9 Batalion Dowodzenia/ 16 Dywizja Zmechanizowana
Patryk Kaczmarczyk,M,Wraps,S24-32,,,29,100,95.4,210,-217.5,-220,210,120,127.5,-135,127.5,205,220,-230,220,557.5,SBD,59,Garage Barbell Club
Adam Świdojć,M,Wraps,S24-32,,,32,100,97,187.5,195,200,200,117.5,125,-130,125,210,225,230,230,555,SBD,60,Garage Barbell Club
Emilian Śpiołek,M,Wraps,S24-32,,,25,100,99.6,180,195,-200,195,125,130,-135,130,215,225,235,235,560,SBD,61,Husarz Team
Bartosz Łagowski,M,Wraps,S24-32,,,29,110,103.2,150,160,-180,160,140,150,162.5,162.5,220,230,240,240,562.5,SBD,62,
Mateusz Mucha,M,Wraps,S24-32,,,25,75,72.9,165,175,-182.5,175,110,115,120,120,-150,150,155,155,450,SBD,63,
Damian Matuszczak,M,Wraps,S24-32,,,31,100,98,190,200,-210,200,127.5,-132.5,-132.5,127.5,200,-220,-220,200,527.5,SBD,64,Stronghold Gym
Eryk Buciuto,M,Wraps,S24-32,,,26,100,93.3,170,185,200,200,115,122.5,-127.5,122.5,170,185,-200,185,507.5,SBD,65,
Robert Glanc,M,Wraps,S24-32,,,30,82.5,75.3,150,160,170,170,85,92.5,-97.5,92.5,160,170,180,180,442.5,SBD,66,BORN 2BE Strong
Filip Jurczok,M,Wraps,S24-32,,,28,100,92.2,-185,185,200,200,85,90,-95,90,185,200,210,210,500,SBD,67,Polish Barbells
Łukasz Duda,M,Wraps,S24-32,,,27,90,82.6,157.5,165,-172.5,165,97.5,102.5,-105,102.5,175,185,200,200,467.5,SBD,68,PowerliftingBears TEAM
Artur Wodecki,M,Wraps,S24-32,,,31,110,108.9,190,200,-205,200,107.5,112.5,-120,112.5,205,215,220,220,532.5,SBD,69,Garage Barbell Club
Konrad Juszkiewicz,M,Wraps,S24-32,,,30,140,138.8,-215,215,225,225,117.5,125,-130,125,190,205,-215,205,555,SBD,70,Polish Barbells
Rafał Banachowicz,M,Wraps,S24-32,,,31,110,103,210,220,-230,220,125,132.5,-140,132.5,-140,140,,140,492.5,SBD,71,Ekipa Miami
Marcin Oleś,M,Wraps,S24-32,,,24,90,87.3,215,225,-235,225,155,162.5,-170,162.5,-225,-225,,,,SBD,DQ,Polish Barbells
Łukasz Klugiewicz,M,Wraps,S24-32,,,28,140+,141.6,-390,-395,-395,,,,,,,,,,,SBD,DQ,Potwory Tybory
Michał Pacholczak,M,Wraps,S24-32,,,31,140,125.1,275,290,-300,290,190,202.5,-210,202.5,-285,-285,-285,,,SBD,DQ,
Sławomir Grzona,M,Wraps,S33-39,,,34,140,127.2,320,335,-345,335,180,190,200,200,-320,320,337.5,337.5,872.5,SBD,1,Good Lift Grudziądz
Piotr Woźniak,M,Wraps,S33-39,,,34,100,98.9,-300,-315,315,315,190,200,-205,200,290,-310,-310,290,805,SBD,2,The Lifters
Kacper Uszakiewicz,M,Wraps,S33-39,,,34,100,94.3,-275,285,-295,285,155,-165,-165,155,295,312.5,-315,312.5,752.5,SBD,3,The Lifters
Marek Sarama,M,Wraps,S33-39,,,36,82.5,82.3,245,260,-270,260,150,-160,160,160,245,-250,-250,245,665,SBD,4,14 Pułk Przeciwpancerny w Suwałkach
Przemysław Rybacki,M,Wraps,S33-39,,,37,125,111.2,240,260,-275,260,170,180,-190,180,270,285,-290,285,725,SBD,5,Metro Flex Wrocław / Służba Więzienna
Dawid Górzyński,M,Wraps,S33-39,,,35,110,108.2,230,240,250,250,180,185,190,190,250,260,270,270,710,SBD,6,
Paweł Durecki,M,Wraps,S33-39,,,37,100,95.3,200,-215,-225,200,170,180,190,190,200,215,225,225,615,SBD,7,
Przemysław Siwek,M,Wraps,S33-39,,,39,110,106.5,230,-240,-240,230,145,150,-152.5,150,240,250,-260,250,630,SBD,8,Husarz Team
Wojciech Kotecki,M,Wraps,S33-39,,,33,90,89.9,190,200,-205,200,125,130,,130,220,230,,230,560,SBD,9,Legion Team
Piotr Celeban,M,Wraps,S33-39,,,37,90,89.2,175,187.5,195,195,97.5,105,110,110,175,187.5,200,200,505,SBD,10,KS Outlaw Barbell Gdynia
Tomasz Grabara,M,Wraps,S33-39,,,33,100,95.8,150,160,-170,160,107.5,112.5,-115,112.5,220,-232.5,232.5,232.5,505,SBD,11,NOMERCY POWERLIFTING
Jakub Głowacki,M,Wraps,Open,,,37,82.5,81.1,140,150,160,160,95,100,-105,100,185,195,-202.5,195,455,SBD,12,Elite Powerlifting Team
Sławomir Jankowski,M,Wraps,M40-44,,,42,140+,159.6,250,270,280,280,160,175,180,180,275,300,-325,300,760,SBD,1,Opolski Power Team
Szymon Bielucy,M,Wraps,M40-44,,,41,110,105.9,230,250,-270,250,155,165,-175,165,-270,-270,270,270,685,SBD,2,
Przemysław Chelman,M,Wraps,M40-44,,,43,125,119.9,-220,230,240,240,160,170,-175,170,200,210,,210,620,SBD,3,Wola Mocy
Przemysław Więckowski,M,Wraps,M40-44,,,40,100,97.9,230,-240,-240,230,-155,155,-165,155,200,212.5,-225,212.5,597.5,SBD,4,Husarz Team
Kamil Lindecki,M,Wraps,M40-44,,,41,90,85.1,200,210,220,220,110,115,-117.5,115,180,190,200,200,535,SBD,5,Stronghold Gym
Marek Gott,M,Wraps,M40-44,,,40,90,84.3,150,160,170,170,130,137.5,142.5,142.5,170,180,-187.5,180,492.5,SBD,6,PowerliftingBears TEAM
Mariusz Cichocki,M,Wraps,M45-49,,,45,125,118.1,-210,-230,230,230,180,-190,190,190,270,285,-292.5,285,705,SBD,1,
Witold Studziński,M,Wraps,M45-49,,,46,82.5,81.6,175,190,-200,190,115,120,122.5,122.5,180,192.5,-200,192.5,505,SBD,2,Turbo Dzik Team
Józef Sokołowski,M,Wraps,M65-69,,,67,110,106.9,240,-260,-260,240,100,110,,110,150,160,,160,510,SBD,1,Ikar Krosino/Mendelejew Team
